No,Latitude,Longitude,Altitude,Speed,Course,FIX,HDOP,VDOP,PDOP,Satellites,Date,Time
1,46.887767,7.659742,785.3,0.01,103.9,"dgps",0.60,1.10,1.30,17,2017/11/23,12:35:20.5
2,46.887768,7.659740,785.4,0.00,317.5,"dgps",0.60,1.10,1.30,17,2017/11/23,12:35:21
3,46.887768,7.659740,785.4,0.01,243.9,"dgps",0.60,1.10,1.30,17,2017/11/23,12:35:21.5
4,46.887767,7.659742,785.2,0.02,313.4,"dgps",0.60,1.10,1.30,17,2017/11/23,12:35:22
5,46.887767,7.659742,785.2,0.02,271.1,"dgps",0.60,1.10,1.30,17,2017/11/23,12:35:22.5
6,46.887767,7.659743,785.5,0.02,216.8,"dgps",0.60,1.10,1.30,17,2017/11/23,12:35:23
7,46.887767,7.659742,785.7,0.02,198.1,"dgps",0.60,1.10,1.30,17,2017/11/23,12:35:23.5
8,46.887770,7.659738,786.1,0.01,2.2,"dgps",0.60,1.10,1.30,17,2017/11/23,12:35:24
9,46.887768,7.659740,785.8,0.02,195.8,"dgps",0.60,1.10,1.30,17,2017/11/23,12:35:24.5
10,46.887770,7.659742,785.5,0.03,214.3,"dgps",0.60,1.10,1.30,17,2017/11/23,12:35:25
11,46.887768,7.659742,785.5,0.03,251.2,"dgps",0.60,1.10,1.30,17,2017/11/23,12:35:25.5
12,46.887767,7.659740,785.4,0.06,120.0,"dgps",0.60,1.10,1.30,17,2017/11/23,12:35:26
13,46.887767,7.659742,785.5,0.14,73.4,"dgps",0.60,1.10,1.30,17,2017/11/23,12:35:26.5
14,46.887768,7.659740,786.9,0.35,207.3,"dgps",0.60,1.10,1.30,17,2017/11/23,12:35:27
15,46.887768,7.659737,787.2,1.11,271.5,"dgps",0.60,1.10,1.30,17,2017/11/23,12:35:27.5
16,46.887767,7.659737,787.1,0.59,107.9,"dgps",0.60,1.10,1.30,17,2017/11/23,12:35:28
17,46.887767,7.659735,786.9,0.16,314.6,"dgps",0.60,1.10,1.30,17,2017/11/23,12:35:28.5
18,46.887758,7.659730,787.7,0.31,214.4,"dgps",0.60,1.10,1.30,17,2017/11/23,12:35:29
19,46.887760,7.659732,787.7,0.41,219.1,"dgps",0.60,1.10,1.30,17,2017/11/23,12:35:29.5
20,46.887765,7.659733,787.2,0.37,225.4,"dgps",0.60,1.10,1.30,17,2017/11/23,12:35:30
21,46.887763,7.659730,787.2,0.30,228.8,"dgps",0.60,1.10,1.30,17,2017/11/23,12:35:30.5
22,46.887762,7.659728,787.2,0.25,226.7,"dgps",0.60,1.10,1.30,17,2017/11/23,12:35:31
23,46.887760,7.659725,787.3,0.50,238.7,"dgps",0.60,1.10,1.30,17,2017/11/23,12:35:31.5
24,46.887760,7.659723,787.2,0.47,231.0,"dgps",0.60,1.10,1.30,17,2017/11/23,12:35:32
25,46.887758,7.659722,787.3,0.35,222.8,"dgps",0.60,1.10,1.30,17,2017/11/23,12:35:32.5
26,46.887760,7.659720,787.4,0.26,249.6,"dgps",0.60,1.10,1.30,17,2017/11/23,12:35:33
27,46.887758,7.659718,787.4,0.34,243.9,"dgps",0.60,1.10,1.30,17,2017/11/23,12:35:33.5
28,46.887760,7.659717,787.4,0.56,352.8,"dgps",0.60,1.10,1.30,17,2017/11/23,12:35:34
29,46.887762,7.659715,787.5,0.14,294.1,"dgps",0.60,1.10,1.30,17,2017/11/23,12:35:34.5
30,46.887757,7.659718,786.7,0.16,285.7,"dgps",0.60,1.10,1.30,17,2017/11/23,12:35:35
31,46.887757,7.659717,786.5,0.23,309.3,"dgps",0.60,1.10,1.30,17,2017/11/23,12:35:35.5
32,46.887760,7.659713,786.8,0.48,320.9,"dgps",0.60,1.10,1.30,17,2017/11/23,12:35:36
33,46.887762,7.659712,786.9,0.43,324.0,"dgps",0.60,1.10,1.30,17,2017/11/23,12:35:36.5
34,46.887765,7.659708,787.1,0.35,315.8,"dgps",0.60,1.10,1.30,17,2017/11/23,12:35:37
35,46.887765,7.659707,787.1,0.35,313.0,"dgps",0.60,1.10,1.30,17,2017/11/23,12:35:37.5
36,46.887767,7.659703,787.2,0.52,326.1,"dgps",0.60,1.10,1.30,17,2017/11/23,12:35:38
37,46.887768,7.659702,787.3,0.44,323.5,"dgps",0.60,1.10,1.30,17,2017/11/23,12:35:38.5
38,46.887772,7.659702,786.7,0.49,354.5,"dgps",0.60,1.10,1.30,17,2017/11/23,12:35:39
39,46.887773,7.659703,786.4,0.90,50.9,"dgps",0.60,1.10,1.30,17,2017/11/23,12:35:39.5
40,46.887772,7.659703,786.3,0.44,7.1,"dgps",0.60,1.10,1.30,17,2017/11/23,12:35:40
41,46.887773,7.659705,786.5,0.56,116.6,"dgps",0.60,1.10,1.30,17,2017/11/23,12:35:40.5
42,46.887777,7.659708,786.0,0.17,349.8,"dgps",0.60,1.10,1.30,17,2017/11/23,12:35:41
43,46.887778,7.659710,786.2,0.04,261.4,"dgps",0.60,1.10,1.30,17,2017/11/23,12:35:41.5
44,46.887780,7.659708,787.4,0.09,29.3,"dgps",0.60,1.10,1.30,17,2017/11/23,12:35:42
45,46.887780,7.659710,787.2,0.19,69.2,"dgps",0.60,1.10,1.30,17,2017/11/23,12:35:42.5
46,46.887782,7.659712,786.8,0.40,51.6,"dgps",0.60,1.10,1.30,17,2017/11/23,12:35:43
47,46.887782,7.659712,787.0,0.44,54.3,"dgps",0.60,1.10,1.30,17,2017/11/23,12:35:43.5
48,46.887783,7.659718,785.9,0.64,62.3,"dgps",0.60,1.10,1.30,17,2017/11/23,12:35:44
49,46.887783,7.659720,785.9,0.56,56.7,"dgps",0.60,1.10,1.30,17,2017/11/23,12:35:44.5
50,46.887782,7.659720,787.2,0.50,52.7,"dgps",0.60,1.10,1.30,17,2017/11/23,12:35:45
51,46.887783,7.659720,787.1,0.33,37.5,"dgps",0.60,1.10,1.30,17,2017/11/23,12:35:45.5
52,46.887787,7.659727,786.4,0.25,53.8,"dgps",0.60,1.10,1.30,17,2017/11/23,12:35:46
53,46.887785,7.659727,786.7,0.25,110.7,"dgps",0.60,1.10,1.30,17,2017/11/23,12:35:46.5
54,46.887787,7.659728,785.0,0.54,143.8,"dgps",0.70,1.10,1.30,16,2017/11/23,12:35:47
55,46.887783,7.659732,785.1,0.46,135.6,"dgps",0.70,1.10,1.30,16,2017/11/23,12:35:47.5
56,46.887778,7.659737,785.7,0.60,150.7,"dgps",0.60,1.10,1.30,16,2017/11/23,12:35:48
57,46.887775,7.659738,785.9,0.53,144.7,"dgps",0.60,1.10,1.30,16,2017/11/23,12:35:48.5
58,46.887773,7.659740,786.5,0.49,139.9,"dgps",0.60,1.10,1.30,16,2017/11/23,12:35:49
59,46.887773,7.659742,786.4,0.51,146.2,"dgps",0.60,1.10,1.30,16,2017/11/23,12:35:49.5
60,46.887767,7.659743,786.9,0.49,139.3,"dgps",0.60,1.10,1.30,16,2017/11/23,12:35:50
61,46.887767,7.659745,786.8,0.35,151.5,"dgps",0.60,1.10,1.30,16,2017/11/23,12:35:50.5
62,46.887768,7.659742,787.6,0.12,189.1,"dgps",0.60,1.10,1.30,16,2017/11/23,12:35:51
63,46.887767,7.659742,787.8,0.28,246.3,"dgps",0.60,1.10,1.30,16,2017/11/23,12:35:51.5
64,46.887763,7.659740,788.1,0.30,235.0,"dgps",0.60,1.10,1.30,17,2017/11/23,12:35:52
65,46.887762,7.659738,788.0,0.31,233.1,"dgps",0.60,1.10,1.30,17,2017/11/23,12:35:52.5
66,46.887763,7.659735,788.0,0.30,233.2,"dgps",0.60,1.10,1.30,17,2017/11/23,12:35:53
67,46.887758,7.659752,789.8,0.42,233.9,"dgps",0.60,1.10,1.30,17,2017/11/23,12:35:53.5
68,46.887763,7.659757,788.4,0.44,235.0,"dgps",0.60,1.10,1.30,17,2017/11/23,12:35:54
69,46.887762,7.659753,788.6,0.44,237.5,"dgps",0.60,1.10,1.30,17,2017/11/23,12:35:54.5
70,46.887762,7.659753,788.2,0.51,219.5,"dgps",0.60,1.10,1.30,17,2017/11/23,12:35:55
71,46.887760,7.659748,788.5,0.40,218.4,"dgps",0.60,1.10,1.30,17,2017/11/23,12:35:55.5
72,46.887755,7.659747,788.8,0.40,215.4,"dgps",0.60,1.10,1.30,16,2017/11/23,12:35:56
73,46.887755,7.659745,788.8,0.19,265.9,"dgps",0.60,1.10,1.30,16,2017/11/23,12:35:56.5
74,46.887755,7.659743,788.7,0.17,249.1,"dgps",0.60,1.10,1.30,16,2017/11/23,12:35:57
75,46.887755,7.659742,788.8,0.27,325.2,"dgps",0.60,1.10,1.30,16,2017/11/23,12:35:57.5
76,46.887757,7.659742,788.3,0.28,330.3,"dgps",0.60,1.10,1.30,17,2017/11/23,12:35:58
77,46.887758,7.659738,788.5,0.36,324.1,"dgps",0.60,1.10,1.30,17,2017/11/23,12:35:58.5
78,46.887762,7.659730,789.9,0.51,328.9,"dgps",0.60,1.10,1.30,17,2017/11/23,12:35:59
79,46.887763,7.659728,789.8,0.50,327.7,"dgps",0.60,1.10,1.30,17,2017/11/23,12:35:59.5
80,46.887765,7.659730,789.0,0.49,320.1,"dgps",0.70,1.20,1.40,16,2017/11/23,12:36:00
81,46.887767,7.659727,789.0,0.57,327.4,"dgps",0.70,1.20,1.40,16,2017/11/23,12:36:00.5
82,46.887772,7.659723,789.3,0.56,322.5,"dgps",0.60,1.10,1.30,17,2017/11/23,12:36:01
83,46.887773,7.659722,789.3,0.26,316.9,"dgps",0.60,1.10,1.30,17,2017/11/23,12:36:01.5
84,46.887773,7.659717,789.4,0.42,345.1,"dgps",0.70,1.20,1.40,16,2017/11/23,12:36:02
85,46.887775,7.659717,789.3,0.16,151.7,"dgps",0.70,1.20,1.40,16,2017/11/23,12:36:02.5
86,46.887790,7.659707,791.8,0.09,177.4,"dgps",0.60,1.10,1.30,17,2017/11/23,12:36:03
87,46.887790,7.659708,791.5,0.06,99.6,"dgps",0.60,1.10,1.30,17,2017/11/23,12:36:03.5
88,46.887777,7.659718,788.8,0.04,129.7,"dgps",0.60,1.10,1.30,17,2017/11/23,12:36:04
89,46.887778,7.659722,788.8,0.04,282.9,"dgps",0.60,1.10,1.30,17,2017/11/23,12:36:04.5
90,46.887770,7.659725,788.1,0.02,32.3,"dgps",0.60,1.10,1.30,17,2017/11/23,12:36:05
91,46.887770,7.659725,788.1,0.19,7.8,"dgps",0.60,1.10,1.30,17,2017/11/23,12:36:05.5
92,46.887772,7.659727,787.9,0.44,66.6,"dgps",0.60,1.10,1.30,17,2017/11/23,12:36:06
93,46.887772,7.659732,787.7,0.40,57.9,"dgps",0.60,1.10,1.30,17,2017/11/23,12:36:06.5
94,46.887775,7.659733,787.5,0.49,60.0,"dgps",0.60,1.10,1.30,17,2017/11/23,12:36:07
95,46.887777,7.659737,787.5,0.49,61.4,"dgps",0.60,1.10,1.30,17,2017/11/23,12:36:07.5
96,46.887780,7.659737,787.6,0.51,54.9,"dgps",0.60,1.10,1.30,17,2017/11/23,12:36:08
97,46.887782,7.659740,787.6,0.60,53.8,"dgps",0.60,1.10,1.30,17,2017/11/23,12:36:08.5
98,46.887783,7.659742,787.4,0.54,44.7,"dgps",0.60,1.10,1.30,17,2017/11/23,12:36:09
99,46.887783,7.659743,787.4,0.37,53.3,"dgps",0.60,1.10,1.30,17,2017/11/23,12:36:09.5
100,46.887787,7.659747,787.9,0.26,182.6,"dgps",0.60,1.10,1.30,17,2017/11/23,12:36:10
101,46.887787,7.659743,787.9,0.26,8.7,"dgps",0.60,1.10,1.30,17,2017/11/23,12:36:10.5
102,46.887792,7.659740,788.0,0.19,150.0,"dgps",0.60,1.10,1.30,16,2017/11/23,12:36:11
103,46.887792,7.659740,788.0,0.25,162.6,"dgps",0.60,1.10,1.30,16,2017/11/23,12:36:11.5
104,46.887777,7.659750,789.0,0.38,154.1,"dgps",0.60,1.10,1.30,17,2017/11/23,12:36:12
105,46.887777,7.659748,788.7,0.44,139.7,"dgps",0.60,1.10,1.30,17,2017/11/23,12:36:12.5
106,46.887777,7.659747,788.4,0.71,154.3,"dgps",0.60,1.10,1.30,16,2017/11/23,12:36:13
107,46.887773,7.659750,788.9,0.55,146.0,"dgps",0.60,1.10,1.30,16,2017/11/23,12:36:13.5
108,46.887773,7.659752,788.7,0.58,139.7,"dgps",0.60,1.10,1.30,16,2017/11/23,12:36:14
109,46.887772,7.659755,788.8,0.56,141.5,"dgps",0.60,1.10,1.30,16,2017/11/23,12:36:14.5
110,46.887770,7.659758,788.7,0.35,141.0,"dgps",0.60,1.10,1.30,16,2017/11/23,12:36:15
111,46.887768,7.659758,788.8,0.17,170.2,"dgps",0.60,1.10,1.30,16,2017/11/23,12:36:15.5
112,46.887772,7.659758,789.4,0.16,36.4,"dgps",0.60,1.10,1.30,17,2017/11/23,12:36:16
113,46.887765,7.659752,790.6,0.09,120.0,"dgps",0.60,1.10,1.30,17,2017/11/23,12:36:16.5
114,46.887758,7.659750,790.6,0.16,218.1,"dgps",0.70,1.20,1.40,15,2017/11/23,12:36:17
115,46.887758,7.659748,790.6,0.28,265.2,"dgps",0.70,1.20,1.40,15,2017/11/23,12:36:17.5
116,46.887760,7.659750,789.5,0.39,237.0,"dgps",0.60,1.10,1.30,17,2017/11/23,12:36:18
117,46.887757,7.659747,789.8,0.44,238.2,"dgps",0.60,1.10,1.30,17,2017/11/23,12:36:18.5
118,46.887763,7.659752,788.3,0.43,243.9,"dgps",0.60,1.10,1.30,17,2017/11/23,12:36:19
119,46.887760,7.659745,788.8,0.54,233.0,"dgps",0.60,1.10,1.30,17,2017/11/23,12:36:19.5
120,46.887765,7.659755,787.9,0.50,223.3,"dgps",0.60,1.10,1.30,17,2017/11/23,12:36:20
121,46.887762,7.659750,788.1,0.76,241.7,"dgps",0.60,1.10,1.30,17,2017/11/23,12:36:20.5
122,46.887760,7.659747,787.8,0.50,232.0,"dgps",0.60,1.10,1.30,17,2017/11/23,12:36:21
123,46.887758,7.659745,787.9,0.18,238.0,"dgps",0.60,1.10,1.30,17,2017/11/23,12:36:21.5
124,46.887760,7.659740,788.6,0.31,308.1,"dgps",0.60,1.10,1.30,17,2017/11/23,12:36:22
125,46.887760,7.659738,788.6,0.05,293.4,"dgps",0.60,1.10,1.30,17,2017/11/23,12:36:22.5
126,46.887757,7.659738,786.6,0.22,336.0,"dgps",0.60,1.10,1.30,17,2017/11/23,12:36:23
127,46.887758,7.659737,786.8,0.41,333.7,"dgps",0.60,1.10,1.30,17,2017/11/23,12:36:23.5
128,46.887767,7.659735,788.0,0.49,319.2,"dgps",0.70,1.20,1.40,16,2017/11/23,12:36:24
129,46.887768,7.659732,788.2,0.73,329.0,"dgps",0.70,1.20,1.40,16,2017/11/23,12:36:24.5
130,46.887768,7.659730,788.0,0.57,322.0,"dgps",0.70,1.20,1.40,16,2017/11/23,12:36:25
131,46.887770,7.659728,788.1,0.53,314.1,"dgps",0.70,1.20,1.40,16,2017/11/23,12:36:25.5
132,46.887773,7.659725,787.9,0.66,327.7,"dgps",0.60,1.10,1.30,17,2017/11/23,12:36:26
133,46.887775,7.659723,788.1,0.51,322.8,"dgps",0.60,1.10,1.30,17,2017/11/23,12:36:26.5
134,46.887777,7.659720,789.3,0.15,68.4,"dgps",0.60,1.10,1.30,17,2017/11/23,12:36:27
135,46.887780,7.659722,789.5,0.29,64.4,"dgps",0.60,1.10,1.30,17,2017/11/23,12:36:27.5
136,46.887782,7.659723,788.6,0.19,17.2,"dgps",0.60,1.10,1.30,17,2017/11/23,12:36:28
137,46.887780,7.659725,788.3,0.48,64.1,"dgps",0.60,1.10,1.30,17,2017/11/23,12:36:28.5
138,46.887790,7.659738,789.1,0.44,56.4,"dgps",0.60,1.10,1.30,17,2017/11/23,12:36:29
139,46.887783,7.659733,788.5,0.48,53.2,"dgps",0.60,1.10,1.30,17,2017/11/23,12:36:29.5
140,46.887778,7.659733,788.5,0.47,53.9,"dgps",0.60,1.10,1.30,17,2017/11/23,12:36:30
141,46.887778,7.659737,788.5,0.46,48.1,"dgps",0.60,1.10,1.30,17,2017/11/23,12:36:30.5
142,46.887780,7.659740,788.4,0.53,59.3,"dgps",0.60,1.10,1.30,17,2017/11/23,12:36:31
143,46.887780,7.659742,788.3,0.40,48.8,"dgps",0.60,1.10,1.30,17,2017/11/23,12:36:31.5
144,46.887782,7.659743,788.4,0.26,59.2,"dgps",0.60,1.10,1.30,17,2017/11/23,12:36:32
145,46.887780,7.659747,788.6,0.20,92.0,"dgps",0.60,1.10,1.30,17,2017/11/23,12:36:32.5
146,46.887785,7.659747,788.3,0.15,74.4,"dgps",0.60,1.10,1.30,17,2017/11/23,12:36:33
147,46.887787,7.659745,788.3,0.10,121.7,"dgps",0.60,1.10,1.30,17,2017/11/23,12:36:33.5
148,46.887780,7.659747,788.2,0.20,140.7,"dgps",0.70,1.10,1.30,16,2017/11/23,12:36:34
149,46.887778,7.659748,788.2,0.21,159.9,"dgps",0.70,1.10,1.30,16,2017/11/23,12:36:34.5
150,46.887777,7.659750,788.4,0.60,148.0,"dgps",0.60,1.10,1.30,16,2017/11/23,12:36:35
151,46.887775,7.659752,788.3,0.61,150.0,"dgps",0.60,1.10,1.30,16,2017/11/23,12:36:35.5
152,46.887775,7.659752,788.2,0.57,151.3,"dgps",0.60,1.10,1.30,16,2017/11/23,12:36:36
153,46.887773,7.659753,788.2,0.78,144.5,"dgps",0.60,1.10,1.30,16,2017/11/23,12:36:36.5
154,46.887767,7.659757,788.6,0.73,150.2,"dgps",0.60,1.10,1.30,16,2017/11/23,12:36:37
155,46.887765,7.659758,788.6,0.37,153.8,"dgps",0.60,1.10,1.30,16,2017/11/23,12:36:37.5
156,46.887765,7.659757,788.9,0.20,161.7,"dgps",0.60,1.10,1.30,16,2017/11/23,12:36:38
157,46.887765,7.659757,789.0,0.06,318.3,"dgps",0.60,1.10,1.30,16,2017/11/23,12:36:38.5
158,46.887762,7.659755,789.2,0.09,35.6,"dgps",0.60,1.10,1.30,17,2017/11/23,12:36:39
159,46.887763,7.659755,789.3,0.23,352.2,"dgps",0.60,1.10,1.30,17,2017/11/23,12:36:39.5
160,46.887765,7.659757,789.6,0.30,330.5,"dgps",0.60,1.10,1.30,17,2017/11/23,12:36:40
161,46.887767,7.659758,789.2,0.23,307.8,"dgps",0.60,1.10,1.30,17,2017/11/23,12:36:40.5
162,46.887768,7.659757,789.1,0.28,313.3,"dgps",0.60,1.10,1.30,17,2017/11/23,12:36:41
163,46.887770,7.659753,789.1,0.56,320.7,"dgps",0.60,1.10,1.30,17,2017/11/23,12:36:41.5
164,46.887775,7.659752,789.2,0.45,311.5,"dgps",0.60,1.10,1.30,17,2017/11/23,12:36:42
165,46.887780,7.659745,790.0,0.46,328.1,"dgps",0.60,1.10,1.30,17,2017/11/23,12:36:42.5
166,46.887780,7.659748,789.2,0.45,326.3,"dgps",0.60,1.10,1.30,17,2017/11/23,12:36:43
167,46.887780,7.659745,789.3,0.53,263.9,"dgps",0.60,1.10,1.30,17,2017/11/23,12:36:43.5
168,46.887778,7.659742,789.1,0.51,259.3,"dgps",0.60,1.10,1.30,17,2017/11/23,12:36:44
169,46.887778,7.659740,789.1,0.29,237.5,"dgps",0.60,1.10,1.30,17,2017/11/23,12:36:44.5
170,46.887778,7.659738,789.5,0.32,240.2,"dgps",0.60,1.10,1.30,17,2017/11/23,12:36:45
171,46.887783,7.659745,788.4,0.44,245.5,"dgps",0.60,1.10,1.30,17,2017/11/23,12:36:45.5
172,46.887782,7.659737,788.8,0.42,240.3,"dgps",0.60,1.10,1.30,17,2017/11/23,12:36:46
173,46.887780,7.659733,788.8,0.60,230.3,"dgps",0.60,1.10,1.30,17,2017/11/23,12:36:46.5
174,46.887777,7.659728,788.7,0.60,244.7,"dgps",0.60,1.10,1.30,17,2017/11/23,12:36:47
175,46.887775,7.659725,788.9,0.44,219.8,"dgps",0.60,1.10,1.30,17,2017/11/23,12:36:47.5
176,46.887773,7.659725,788.8,0.28,217.0,"dgps",0.60,1.10,1.30,17,2017/11/23,12:36:48
177,46.887772,7.659723,788.7,0.45,202.2,"dgps",0.60,1.10,1.30,17,2017/11/23,12:36:48.5
178,46.887773,7.659727,788.7,0.61,77.1,"dgps",0.60,1.10,1.30,17,2017/11/23,12:36:49
179,46.887775,7.659728,788.3,0.10,127.5,"dgps",0.60,1.10,1.30,17,2017/11/23,12:36:49.5
180,46.887770,7.659725,788.5,0.17,175.5,"dgps",0.60,1.10,1.30,17,2017/11/23,12:36:50
181,46.887765,7.659727,789.2,0.29,130.8,"dgps",0.60,1.10,1.30,17,2017/11/23,12:36:50.5
182,46.887762,7.659728,789.4,0.51,147.9,"dgps",0.70,1.10,1.30,16,2017/11/23,12:36:51
183,46.887760,7.659730,789.4,0.54,147.9,"dgps",0.70,1.10,1.30,16,2017/11/23,12:36:51.5
184,46.887760,7.659732,789.3,0.45,140.5,"dgps",0.60,1.10,1.30,16,2017/11/23,12:36:52
185,46.887757,7.659733,789.3,0.43,158.7,"dgps",0.60,1.10,1.30,16,2017/11/23,12:36:52.5
186,46.887758,7.659737,788.4,0.59,123.0,"dgps",0.60,1.10,1.30,16,2017/11/23,12:36:53
187,46.887757,7.659738,788.5,0.50,117.7,"dgps",0.60,1.10,1.30,16,2017/11/23,12:36:53.5
188,46.887760,7.659740,788.3,0.25,49.1,"dgps",0.60,1.10,1.30,17,2017/11/23,12:36:54
189,46.887760,7.659742,788.3,0.23,5.1,"dgps",0.60,1.10,1.30,17,2017/11/23,12:36:54.5
190,46.887757,7.659738,789.0,0.38,63.3,"dgps",0.60,1.10,1.30,17,2017/11/23,12:36:55
191,46.887757,7.659742,788.9,0.34,63.3,"dgps",0.60,1.10,1.30,17,2017/11/23,12:36:55.5
192,46.887760,7.659745,788.8,0.31,43.0,"dgps",0.60,1.10,1.30,17,2017/11/23,12:36:56
193,46.887762,7.659742,788.5,0.52,70.0,"dgps",0.60,1.10,1.30,17,2017/11/23,12:36:56.5
194,46.887763,7.659748,788.0,0.50,53.0,"dgps",0.60,1.10,1.30,17,2017/11/23,12:36:57
195,46.887767,7.659753,787.8,0.43,56.6,"dgps",0.60,1.10,1.30,17,2017/11/23,12:36:57.5
196,46.887763,7.659750,788.6,0.30,57.4,"dgps",0.60,1.10,1.30,17,2017/11/23,12:36:58
197,46.887765,7.659752,788.5,0.32,10.7,"dgps",0.60,1.10,1.30,17,2017/11/23,12:36:58.5
198,46.887768,7.659753,787.6,0.08,42.0,"dgps",0.60,1.10,1.30,17,2017/11/23,12:36:59
199,46.887768,7.659755,787.3,0.27,335.7,"dgps",0.60,1.10,1.30,17,2017/11/23,12:36:59.5
200,46.887760,7.659757,787.0,0.28,305.6,"dgps",0.70,1.20,1.40,16,2017/11/23,12:37:00
201,46.887762,7.659755,787.0,0.52,327.7,"dgps",0.70,1.20,1.40,16,2017/11/23,12:37:00.5
202,46.887768,7.659753,787.4,0.27,302.5,"dgps",0.60,1.10,1.30,17,2017/11/23,12:37:01
203,46.887772,7.659750,787.8,0.29,310.7,"dgps",0.60,1.10,1.30,17,2017/11/23,12:37:01.5
204,46.887780,7.659742,789.1,0.73,331.9,"dgps",0.60,1.10,1.30,17,2017/11/23,12:37:02
205,46.887782,7.659740,789.2,0.62,334.6,"dgps",0.60,1.10,1.30,17,2017/11/23,12:37:02.5
206,46.887783,7.659740,789.3,0.25,287.5,"dgps",0.60,1.10,1.30,17,2017/11/23,12:37:03
207,46.887780,7.659740,789.0,0.55,327.5,"dgps",0.60,1.10,1.30,17,2017/11/23,12:37:03.5
208,46.887782,7.659735,789.2,0.41,261.9,"dgps",0.60,1.10,1.30,16,2017/11/23,12:37:04
209,46.887780,7.659733,789.2,0.38,228.1,"dgps",0.60,1.10,1.30,16,2017/11/23,12:37:04.5
210,46.887780,7.659732,789.0,0.26,198.9,"dgps",0.60,1.10,1.30,16,2017/11/23,12:37:05
211,46.887778,7.659732,789.1,0.19,240.8,"dgps",0.60,1.10,1.30,16,2017/11/23,12:37:05.5
212,46.887782,7.659733,789.4,0.28,262.7,"dgps",0.60,1.10,1.30,17,2017/11/23,12:37:06
213,46.887780,7.659732,789.5,0.48,231.0,"dgps",0.60,1.10,1.30,17,2017/11/23,12:37:06.5
214,46.887778,7.659730,789.6,0.37,229.4,"dgps",0.60,1.10,1.30,17,2017/11/23,12:37:07
215,46.887777,7.659727,789.7,0.36,248.4,"dgps",0.60,1.10,1.30,17,2017/11/23,12:37:07.5
216,46.887777,7.659725,789.4,0.51,235.8,"dgps",0.60,1.10,1.30,17,2017/11/23,12:37:08
217,46.887775,7.659722,789.6,0.36,257.0,"dgps",0.60,1.10,1.30,17,2017/11/23,12:37:08.5
218,46.887773,7.659720,789.2,0.34,254.2,"dgps",0.60,1.10,1.30,17,2017/11/23,12:37:09
219,46.887772,7.659718,789.2,0.23,218.7,"dgps",0.60,1.10,1.30,17,2017/11/23,12:37:09.5
220,46.887770,7.659717,789.8,0.21,225.8,"dgps",0.60,1.10,1.30,16,2017/11/23,12:37:10
221,46.887768,7.659717,789.9,0.51,148.2,"dgps",0.60,1.10,1.30,16,2017/11/23,12:37:10.5
222,46.887767,7.659718,790.1,0.30,136.9,"dgps",0.60,1.10,1.30,16,2017/11/23,12:37:11
223,46.887765,7.659718,790.2,0.21,135.2,"dgps",0.60,1.10,1.30,16,2017/11/23,12:37:11.5
224,46.887765,7.659723,789.5,0.32,162.1,"dgps",0.70,1.20,1.50,15,2017/11/23,12:37:12
225,46.887768,7.659713,787.8,0.46,139.0,"3d",0.70,1.20,1.50,15,2017/11/23,12:37:12.5
226,46.887772,7.659710,788.1,0.44,146.8,"3d",0.70,1.20,1.50,15,2017/11/23,12:37:13
227,46.887770,7.659712,788.2,0.30,139.8,"3d",0.70,1.20,1.50,15,2017/11/23,12:37:13.5
228,46.887763,7.659713,788.3,0.43,135.8,"3d",0.60,1.10,1.30,16,2017/11/23,12:37:14
229,46.887762,7.659715,788.3,0.39,149.6,"3d",0.60,1.10,1.30,16,2017/11/23,12:37:14.5
230,46.887762,7.659717,788.3,0.27,135.6,"3d",0.70,1.20,1.50,15,2017/11/23,12:37:15
231,46.887760,7.659718,788.3,0.42,106.9,"3d",0.70,1.20,1.50,15,2017/11/23,12:37:15.5
232,46.887763,7.659717,787.5,0.48,89.7,"3d",0.70,1.20,1.50,15,2017/11/23,12:37:16
233,46.887763,7.659718,787.5,0.42,345.7,"3d",0.70,1.20,1.50,15,2017/11/23,12:37:16.5
234,46.887760,7.659722,788.7,0.18,354.3,"3d",0.60,1.10,1.30,17,2017/11/23,12:37:17
235,46.887760,7.659723,788.7,0.37,69.9,"3d",0.60,1.10,1.30,17,2017/11/23,12:37:17.5
236,46.887763,7.659723,787.9,0.31,44.0,"3d",0.60,1.10,1.30,17,2017/11/23,12:37:18
237,46.887763,7.659727,788.1,0.30,40.8,"3d",0.60,1.10,1.30,17,2017/11/23,12:37:18.5
238,46.887767,7.659733,788.4,0.40,70.7,"3d",0.60,1.10,1.30,17,2017/11/23,12:37:19
239,46.887768,7.659735,788.4,0.25,80.6,"3d",0.60,1.10,1.30,17,2017/11/23,12:37:19.5
240,46.887767,7.659732,787.6,0.39,30.4,"3d",0.60,1.10,1.30,17,2017/11/23,12:37:20
241,46.887768,7.659735,787.6,0.52,59.2,"3d",0.60,1.10,1.30,17,2017/11/23,12:37:20.5
242,46.887768,7.659738,788.2,0.33,50.0,"3d",0.60,1.10,1.30,17,2017/11/23,12:37:21
243,46.887772,7.659740,788.2,0.34,48.3,"3d",0.60,1.10,1.30,17,2017/11/23,12:37:21.5
244,46.887770,7.659737,788.7,0.22,40.6,"3d",0.60,1.10,1.30,17,2017/11/23,12:37:22
245,46.887775,7.659740,788.6,0.49,317.8,"3d",0.60,1.10,1.30,17,2017/11/23,12:37:22.5
246,46.887775,7.659738,787.9,0.34,297.5,"3d",0.60,1.10,1.30,17,2017/11/23,12:37:23
247,46.887775,7.659737,787.9,0.25,325.4,"3d",0.60,1.10,1.30,17,2017/11/23,12:37:23.5
248,46.887775,7.659737,787.6,0.50,323.1,"3d",0.60,1.10,1.30,17,2017/11/23,12:37:24
249,46.887775,7.659737,787.3,0.58,323.8,"3d",0.60,1.10,1.30,17,2017/11/23,12:37:24.5
250,46.887778,7.659732,788.2,0.44,324.3,"3d",0.60,1.10,1.30,17,2017/11/23,12:37:25
251,46.887780,7.659732,787.8,0.33,336.7,"3d",0.60,1.10,1.30,17,2017/11/23,12:37:25.5
252,46.887783,7.659728,787.9,0.60,318.1,"3d",0.60,1.10,1.30,17,2017/11/23,12:37:26
253,46.887785,7.659727,787.8,0.33,321.7,"3d",0.60,1.10,1.30,17,2017/11/23,12:37:26.5
254,46.887782,7.659727,786.6,0.25,294.4,"3d",0.60,1.10,1.30,16,2017/11/23,12:37:27
255,46.887780,7.659723,786.5,0.34,234.4,"3d",0.60,1.10,1.30,16,2017/11/23,12:37:27.5
256,46.887787,7.659720,787.5,0.43,243.1,"3d",0.60,1.10,1.30,16,2017/11/23,12:37:28
257,46.887785,7.659720,787.5,0.25,195.2,"3d",0.60,1.10,1.30,16,2017/11/23,12:37:28.5
258,46.887788,7.659723,788.4,0.23,268.5,"3d",0.60,1.10,1.30,17,2017/11/23,12:37:29
259,46.887787,7.659722,788.4,0.17,243.2,"3d",0.60,1.10,1.30,17,2017/11/23,12:37:29.5
260,46.887782,7.659717,788.6,0.23,239.1,"3d",0.60,1.10,1.30,17,2017/11/23,12:37:30
261,46.887778,7.659708,788.6,0.32,263.0,"3d",0.60,1.10,1.30,17,2017/11/23,12:37:30.5
262,46.887775,7.659703,790.7,0.69,230.5,"3d",0.60,1.10,1.30,17,2017/11/23,12:37:31
263,46.887772,7.659697,791.3,0.45,255.7,"3d",0.60,1.10,1.30,17,2017/11/23,12:37:31.5
264,46.887773,7.659703,790.3,0.40,241.2,"3d",0.60,1.10,1.30,17,2017/11/23,12:37:32
265,46.887773,7.659702,790.2,0.39,228.4,"3d",0.60,1.10,1.30,17,2017/11/23,12:37:32.5
266,46.887777,7.659705,788.8,0.44,256.7,"3d",0.60,1.10,1.30,17,2017/11/23,12:37:33
267,46.887777,7.659703,788.8,0.15,162.2,"3d",0.60,1.10,1.30,17,2017/11/23,12:37:33.5
268,46.887768,7.659703,787.9,0.57,146.6,"3d",0.60,1.10,1.30,17,2017/11/23,12:37:34
269,46.887768,7.659710,787.4,0.31,126.0,"3d",0.60,1.10,1.30,17,2017/11/23,12:37:34.5
270,46.887767,7.659715,787.1,0.37,162.8,"3d",0.60,1.10,1.30,17,2017/11/23,12:37:35
271,46.887765,7.659715,787.7,0.39,164.8,"3d",0.60,1.10,1.30,17,2017/11/23,12:37:35.5
272,46.887768,7.659712,789.4,0.62,137.5,"3d",0.70,1.10,1.30,16,2017/11/23,12:37:36
273,46.887767,7.659715,789.5,0.59,150.6,"3d",0.70,1.10,1.30,16,2017/11/23,12:37:36.5
274,46.887760,7.659718,789.3,0.45,146.9,"3d",0.70,1.10,1.30,16,2017/11/23,12:37:37
275,46.887760,7.659718,789.2,0.29,140.3,"3d",0.70,1.10,1.30,16,2017/11/23,12:37:37.5
276,46.887758,7.659718,789.1,0.32,144.3,"3d",0.60,1.10,1.30,17,2017/11/23,12:37:38
277,46.887758,7.659720,788.9,0.17,154.9,"3d",0.60,1.10,1.30,17,2017/11/23,12:37:38.5
278,46.887757,7.659718,789.6,0.14,172.7,"3d",0.60,1.10,1.30,16,2017/11/23,12:37:39
279,46.887760,7.659723,789.4,0.22,348.5,"3d",0.60,1.10,1.30,16,2017/11/23,12:37:39.5
280,46.887758,7.659720,786.9,0.13,3.4,"3d",0.60,1.10,1.30,17,2017/11/23,12:37:40
281,46.887762,7.659727,786.6,0.05,196.4,"3d",0.60,1.10,1.30,17,2017/11/23,12:37:40.5
282,46.887755,7.659748,784.3,0.49,326.9,"3d",0.70,1.20,1.40,15,2017/11/23,12:37:41
283,46.887755,7.659738,785.8,0.41,323.1,"3d",0.70,1.20,1.40,15,2017/11/23,12:37:41.5
284,46.887758,7.659732,787.5,0.42,317.4,"3d",0.60,1.20,1.40,16,2017/11/23,12:37:42
285,46.887762,7.659728,787.4,0.49,321.0,"3d",0.60,1.20,1.40,16,2017/11/23,12:37:42.5
286,46.887767,7.659717,789.0,0.53,318.9,"3d",0.60,1.20,1.40,16,2017/11/23,12:37:43
287,46.887767,7.659713,788.9,0.62,322.1,"3d",0.60,1.20,1.40,16,2017/11/23,12:37:43.5
288,46.887775,7.659708,789.2,0.59,319.4,"3d",0.60,1.20,1.40,16,2017/11/23,12:37:44
289,46.887775,7.659707,789.0,0.45,315.0,"3d",0.60,1.20,1.40,16,2017/11/23,12:37:44.5
290,46.887787,7.659692,791.0,0.67,334.6,"3d",0.60,1.20,1.40,16,2017/11/23,12:37:45
291,46.887785,7.659693,790.4,0.29,334.4,"3d",0.60,1.20,1.40,16,2017/11/23,12:37:45.5
292,46.887778,7.659707,788.8,0.15,203.3,"3d",0.70,1.10,1.30,16,2017/11/23,12:37:46
293,46.887773,7.659708,788.3,0.23,54.9,"3d",0.70,1.10,1.30,16,2017/11/23,12:37:46.5
294,46.887777,7.659712,788.2,0.28,59.1,"3d",0.60,1.10,1.30,17,2017/11/23,12:37:47
295,46.887772,7.659713,787.4,0.33,59.5,"3d",0.60,1.10,1.30,17,2017/11/23,12:37:47.5
296,46.887778,7.659710,786.7,0.47,49.2,"3d",0.60,1.10,1.30,17,2017/11/23,12:37:48
297,46.887778,7.659713,786.3,0.54,58.6,"3d",0.60,1.10,1.30,17,2017/11/23,12:37:48.5
298,46.887780,7.659723,786.5,0.49,58.9,"3d",0.60,1.10,1.30,17,2017/11/23,12:37:49
299,46.887782,7.659727,786.4,0.55,56.6,"3d",0.60,1.10,1.30,17,2017/11/23,12:37:49.5
300,46.887783,7.659723,786.6,0.49,42.7,"3d",0.60,1.10,1.30,17,2017/11/23,12:37:50
301,46.887785,7.659723,786.6,0.39,70.8,"3d",0.60,1.10,1.30,17,2017/11/23,12:37:50.5
302,46.887780,7.659727,787.2,0.26,43.7,"3d",0.60,1.10,1.30,17,2017/11/23,12:37:51
303,46.887780,7.659727,787.1,0.11,323.3,"3d",0.60,1.10,1.30,17,2017/11/23,12:37:51.5
304,46.887790,7.659722,786.8,0.16,142.3,"3d",0.60,1.10,1.30,17,2017/11/23,12:37:52
305,46.887788,7.659723,786.7,0.19,140.3,"3d",0.60,1.10,1.30,17,2017/11/23,12:37:52.5
306,46.887778,7.659732,786.4,0.35,132.8,"3d",0.70,1.10,1.30,16,2017/11/23,12:37:53
307,46.887777,7.659733,786.6,0.51,147.0,"3d",0.70,1.10,1.30,16,2017/11/23,12:37:53.5
308,46.887778,7.659732,788.1,0.40,145.3,"3d",0.70,1.20,1.40,15,2017/11/23,12:37:54
309,46.887777,7.659735,788.1,0.42,132.8,"3d",0.60,1.10,1.30,16,2017/11/23,12:37:54.5
310,46.887777,7.659737,787.5,0.69,143.6,"3d",0.60,1.10,1.30,16,2017/11/23,12:37:55
311,46.887777,7.659738,786.9,0.50,135.9,"3d",0.60,1.10,1.30,16,2017/11/23,12:37:55.5
312,46.887782,7.659740,784.8,0.48,148.6,"3d",0.60,1.10,1.30,16,2017/11/23,12:37:56
313,46.887773,7.659743,785.9,0.39,144.6,"3d",0.60,1.10,1.30,16,2017/11/23,12:37:56.5
314,46.887770,7.659742,787.1,0.11,161.6,"3d",0.60,1.10,1.30,17,2017/11/23,12:37:57
315,46.887768,7.659742,787.5,0.20,210.0,"3d",0.60,1.10,1.30,17,2017/11/23,12:37:57.5
316,46.887775,7.659745,786.8,0.22,223.5,"3d",0.60,1.10,1.30,16,2017/11/23,12:37:58
317,46.887773,7.659742,786.9,0.51,240.3,"3d",0.60,1.10,1.30,16,2017/11/23,12:37:58.5
318,46.887770,7.659740,787.8,0.50,238.2,"3d",0.60,1.10,1.30,17,2017/11/23,12:37:59
319,46.887768,7.659737,788.1,0.49,232.4,"3d",0.60,1.10,1.30,17,2017/11/23,12:37:59.5
320,46.887760,7.659725,787.9,0.54,231.3,"3d",0.60,1.10,1.30,17,2017/11/23,12:38:00
321,46.887760,7.659723,787.7,0.63,229.4,"3d",0.60,1.10,1.30,17,2017/11/23,12:38:00.5
322,46.887757,7.659715,787.2,0.56,229.5,"3d",0.60,1.10,1.30,17,2017/11/23,12:38:01
323,46.887755,7.659713,787.2,0.41,234.8,"3d",0.60,1.10,1.30,17,2017/11/23,12:38:01.5
324,46.887752,7.659713,787.5,0.34,221.7,"3d",0.60,1.10,1.30,16,2017/11/23,12:38:02
325,46.887752,7.659713,787.5,0.15,298.0,"3d",0.60,1.10,1.30,16,2017/11/23,12:38:02.5
326,46.887755,7.659722,786.7,0.03,286.8,"3d",0.60,1.10,1.30,16,2017/11/23,12:38:03
327,46.887755,7.659723,786.7,0.25,229.3,"3d",0.60,1.10,1.30,16,2017/11/23,12:38:03.5
328,46.887758,7.659712,788.1,0.27,326.2,"3d",0.60,1.10,1.30,17,2017/11/23,12:38:04
329,46.887765,7.659708,788.7,0.43,328.1,"3d",0.60,1.10,1.30,17,2017/11/23,12:38:04.5
330,46.887765,7.659720,787.7,0.52,320.9,"3d",0.60,1.10,1.30,17,2017/11/23,12:38:05
331,46.887767,7.659718,787.5,0.58,316.5,"3d",0.60,1.10,1.30,17,2017/11/23,12:38:05.5
332,46.887772,7.659710,788.6,0.55,325.7,"3d",0.60,1.20,1.40,16,2017/11/23,12:38:06
333,46.887775,7.659705,789.0,0.59,325.4,"3d",0.60,1.20,1.40,16,2017/11/23,12:38:06.5
334,46.887757,7.659713,786.9,0.59,323.0,"3d",0.60,1.20,1.40,16,2017/11/23,12:38:07
335,46.887762,7.659710,787.2,0.52,324.9,"3d",0.60,1.20,1.40,16,2017/11/23,12:38:07.5
336,46.887777,7.659695,789.9,0.47,330.3,"3d",0.60,1.10,1.30,17,2017/11/23,12:38:08
337,46.887773,7.659700,789.1,0.30,30.3,"3d",0.60,1.10,1.30,17,2017/11/23,12:38:08.5
338,46.887772,7.659702,788.8,0.01,81.0,"3d",0.60,1.10,1.30,17,2017/11/23,12:38:09
339,46.887772,7.659702,788.8,0.19,144.4,"3d",0.60,1.10,1.30,17,2017/11/23,12:38:09.5
340,46.887785,7.659697,787.6,0.24,156.2,"3d",0.60,1.10,1.30,17,2017/11/23,12:38:10
341,46.887782,7.659700,786.8,0.11,116.9,"3d",0.60,1.10,1.30,17,2017/11/23,12:38:10.5
342,46.887758,7.659700,787.4,0.23,139.2,"3d",0.60,1.10,1.30,16,2017/11/23,12:38:11
343,46.887763,7.659702,788.1,0.23,121.0,"3d",0.60,1.10,1.30,16,2017/11/23,12:38:11.5
344,46.887775,7.659692,787.4,0.41,140.3,"3d",0.70,1.20,1.40,15,2017/11/23,12:38:12
345,46.887772,7.659697,787.9,0.45,131.8,"3d",0.70,1.20,1.40,15,2017/11/23,12:38:12.5
346,46.887773,7.659697,788.3,0.33,150.2,"3d",0.70,1.20,1.40,15,2017/11/23,12:38:13
347,46.887770,7.659698,788.2,0.48,145.5,"3d",0.60,1.10,1.30,16,2017/11/23,12:38:13.5
348,46.887760,7.659703,788.9,0.36,145.6,"3d",0.70,1.10,1.30,16,2017/11/23,12:38:14
349,46.887758,7.659707,788.8,0.38,148.1,"3d",0.70,1.10,1.30,16,2017/11/23,12:38:14.5
350,46.887760,7.659707,788.0,0.40,137.4,"3d",0.70,1.10,1.30,16,2017/11/23,12:38:15
351,46.887758,7.659710,787.9,0.27,127.8,"3d",0.70,1.10,1.30,16,2017/11/23,12:38:15.5
352,46.887755,7.659710,787.7,0.47,131.1,"3d",0.70,1.10,1.30,16,2017/11/23,12:38:16
353,46.887753,7.659712,787.8,0.10,240.4,"3d",0.60,1.10,1.30,17,2017/11/23,12:38:16.5
354,46.887755,7.659713,789.0,0.06,143.7,"3d",0.60,1.10,1.30,16,2017/11/23,12:38:17
355,46.887753,7.659722,789.3,0.09,329.8,"3d",0.60,1.10,1.30,16,2017/11/23,12:38:17.5
356,46.887755,7.659720,788.8,0.08,278.8,"3d",0.60,1.10,1.30,17,2017/11/23,12:38:18
357,46.887753,7.659722,788.8,0.02,254.5,"3d",0.60,1.10,1.30,17,2017/11/23,12:38:18.5
358,46.887753,7.659740,790.7,0.02,115.7,"3d",0.60,1.10,1.30,16,2017/11/23,12:38:19
359,46.887757,7.659732,790.0,0.03,190.9,"3d",0.60,1.10,1.30,16,2017/11/23,12:38:19.5
360,46.887757,7.659718,788.5,0.01,48.3,"3d",0.60,1.10,1.30,16,2017/11/23,12:38:20
361,46.887758,7.659717,788.4,0.01,139.4,"3d",0.60,1.10,1.30,16,2017/11/23,12:38:20.5
362,46.887750,7.659723,791.3,0.01,202.2,"3d",0.60,1.10,1.30,17,2017/11/23,12:38:21
363,46.887753,7.659705,790.4,0.02,6.3,"3d",0.60,1.10,1.30,17,2017/11/23,12:38:21.5
364,46.887747,7.659705,788.0,0.02,199.1,"3d",0.60,1.10,1.30,17,2017/11/23,12:38:22
365,46.887745,7.659710,788.1,0.02,117.4,"3d",0.60,1.10,1.30,16,2017/11/23,12:38:22.5
366,46.887757,7.659703,789.2,0.02,238.5,"3d",0.60,1.10,1.30,16,2017/11/23,12:38:23
367,46.887757,7.659703,789.2,0.02,78.9,"3d",0.60,1.10,1.30,16,2017/11/23,12:38:23.5
368,46.887762,7.659713,789.1,0.31,57.9,"3d",0.60,1.10,1.30,16,2017/11/23,12:38:24
369,46.887762,7.659715,789.1,0.65,45.6,"3d",0.60,1.10,1.30,16,2017/11/23,12:38:24.5
370,46.887763,7.659713,787.9,0.51,54.5,"3d",0.60,1.10,1.30,17,2017/11/23,12:38:25
371,46.887765,7.659718,787.9,0.62,46.4,"3d",0.60,1.10,1.30,17,2017/11/23,12:38:25.5
372,46.887768,7.659723,788.1,0.47,54.0,"3d",0.60,1.10,1.30,17,2017/11/23,12:38:26
373,46.887770,7.659727,788.0,0.78,68.8,"3d",0.60,1.10,1.30,17,2017/11/23,12:38:26.5
374,46.887768,7.659727,787.5,0.61,57.5,"3d",0.60,1.10,1.30,17,2017/11/23,12:38:27
375,46.887770,7.659728,787.5,0.51,44.4,"3d",0.60,1.10,1.30,17,2017/11/23,12:38:27.5
376,46.887773,7.659722,787.3,0.25,287.0,"3d",0.60,1.10,1.30,17,2017/11/23,12:38:28
377,46.887768,7.659725,786.5,0.44,321.0,"3d",0.60,1.10,1.30,17,2017/11/23,12:38:28.5
378,46.887772,7.659727,785.9,0.65,329.0,"3d",0.60,1.20,1.40,16,2017/11/23,12:38:29
379,46.887775,7.659725,786.1,0.54,328.1,"3d",0.60,1.20,1.40,16,2017/11/23,12:38:29.5
380,46.887780,7.659720,787.1,0.48,321.2,"3d",0.60,1.10,1.30,17,2017/11/23,12:38:30
381,46.887780,7.659720,786.8,0.55,326.4,"3d",0.60,1.10,1.30,17,2017/11/23,12:38:30.5
382,46.887780,7.659717,786.5,0.69,319.4,"3d",0.60,1.10,1.30,17,2017/11/23,12:38:31
383,46.887782,7.659715,786.4,0.43,272.3,"3d",0.60,1.10,1.30,17,2017/11/23,12:38:31.5
384,46.887783,7.659712,786.2,0.37,227.7,"3d",0.60,1.10,1.30,17,2017/11/23,12:38:32
385,46.887782,7.659715,785.6,0.19,176.8,"3d",0.60,1.10,1.30,17,2017/11/23,12:38:32.5
386,46.887778,7.659727,786.2,0.16,248.3,"3d",0.60,1.10,1.30,17,2017/11/23,12:38:33
387,46.887780,7.659720,787.2,0.24,231.0,"3d",0.60,1.10,1.30,17,2017/11/23,12:38:33.5
388,46.887783,7.659722,786.3,0.45,242.8,"3d",0.60,1.10,1.30,17,2017/11/23,12:38:34
389,46.887782,7.659720,786.6,0.44,240.4,"3d",0.60,1.10,1.30,17,2017/11/23,12:38:34.5
390,46.887780,7.659710,786.7,0.39,236.9,"3d",0.60,1.10,1.30,17,2017/11/23,12:38:35
391,46.887780,7.659708,786.8,0.63,240.0,"3d",0.60,1.10,1.30,17,2017/11/23,12:38:35.5
392,46.887777,7.659703,787.6,0.48,252.3,"3d",0.60,1.10,1.30,17,2017/11/23,12:38:36
393,46.887775,7.659697,788.3,0.37,236.4,"3d",0.60,1.10,1.30,17,2017/11/23,12:38:36.5
394,46.887773,7.659695,788.2,0.13,186.5,"3d",0.60,1.10,1.30,16,2017/11/23,12:38:37
395,46.887773,7.659695,788.3,0.10,216.6,"3d",0.60,1.10,1.30,16,2017/11/23,12:38:37.5
396,46.887770,7.659695,789.2,0.37,149.8,"3d",0.60,1.10,1.30,17,2017/11/23,12:38:38
397,46.887772,7.659698,788.6,0.42,127.6,"3d",0.60,1.10,1.30,17,2017/11/23,12:38:38.5
398,46.887770,7.659697,788.0,0.78,147.4,"3d",0.70,1.20,1.40,15,2017/11/23,12:38:39
399,46.887767,7.659700,788.0,0.73,147.5,"3d",0.70,1.20,1.40,15,2017/11/23,12:38:39.5
400,46.887765,7.659702,788.3,0.52,142.2,"3d",0.70,1.10,1.30,16,2017/11/23,12:38:40
401,46.887762,7.659705,788.3,0.59,137.5,"3d",0.60,1.10,1.30,17,2017/11/23,12:38:40.5
402,46.887753,7.659707,788.4,0.58,132.4,"3d",0.70,1.10,1.30,16,2017/11/23,12:38:41
403,46.887753,7.659708,788.4,0.29,128.1,"3d",0.70,1.10,1.30,16,2017/11/23,12:38:41.5
404,46.887748,7.659720,789.4,0.23,175.3,"3d",0.70,1.10,1.30,16,2017/11/23,12:38:42
405,46.887748,7.659722,789.4,0.59,64.1,"3d",0.60,1.10,1.30,17,2017/11/23,12:38:42.5
406,46.887750,7.659722,788.7,0.43,26.4,"3d",0.60,1.10,1.30,16,2017/11/23,12:38:43
407,46.887752,7.659727,788.9,0.67,54.0,"3d",0.60,1.10,1.30,16,2017/11/23,12:38:43.5
408,46.887757,7.659738,790.5,0.56,48.7,"3d",0.60,1.10,1.30,17,2017/11/23,12:38:44
409,46.887760,7.659732,789.7,0.40,52.1,"3d",0.60,1.10,1.30,17,2017/11/23,12:38:44.5
410,46.887763,7.659727,790.2,0.65,64.2,"3d",0.60,1.10,1.30,17,2017/11/23,12:38:45
411,46.887763,7.659725,789.8,0.32,49.3,"3d",0.60,1.10,1.30,17,2017/11/23,12:38:45.5
412,46.887767,7.659728,788.0,0.26,55.7,"3d",0.60,1.10,1.30,17,2017/11/23,12:38:46
413,46.887768,7.659730,788.0,0.41,48.5,"3d",0.60,1.10,1.30,17,2017/11/23,12:38:46.5
414,46.887767,7.659732,787.9,0.43,334.1,"3d",0.60,1.10,1.30,17,2017/11/23,12:38:47
415,46.887768,7.659732,788.1,0.35,308.6,"3d",0.60,1.10,1.30,17,2017/11/23,12:38:47.5
416,46.887768,7.659735,788.3,0.34,320.9,"3d",0.60,1.10,1.30,17,2017/11/23,12:38:48
417,46.887768,7.659735,788.2,0.66,328.7,"3d",0.60,1.20,1.40,16,2017/11/23,12:38:48.5
418,46.887765,7.659728,786.0,0.44,314.0,"3d",0.60,1.20,1.40,16,2017/11/23,12:38:49
419,46.887760,7.659730,785.2,0.47,317.2,"3d",0.60,1.20,1.40,16,2017/11/23,12:38:49.5
420,46.887767,7.659728,786.8,0.60,323.3,"3d",0.60,1.10,1.30,17,2017/11/23,12:38:50
421,46.887767,7.659730,786.6,0.34,327.5,"3d",0.60,1.10,1.30,17,2017/11/23,12:38:50.5
422,46.887773,7.659728,787.0,0.17,304.8,"3d",0.60,1.10,1.30,17,2017/11/23,12:38:51
423,46.887773,7.659728,786.7,0.28,287.9,"3d",0.60,1.10,1.30,17,2017/11/23,12:38:51.5
424,46.887772,7.659725,784.5,0.68,244.7,"3d",0.60,1.10,1.30,16,2017/11/23,12:38:52
425,46.887772,7.659722,785.3,0.22,315.4,"3d",0.60,1.10,1.30,16,2017/11/23,12:38:52.5
426,46.887778,7.659713,787.8,0.15,233.3,"3d",0.60,1.10,1.30,17,2017/11/23,12:38:53
427,46.887783,7.659723,786.3,0.10,243.6,"3d",0.60,1.10,1.30,17,2017/11/23,12:38:53.5
428,46.887785,7.659728,786.7,0.17,270.2,"3d",0.60,1.10,1.30,17,2017/11/23,12:38:54
429,46.887785,7.659732,786.4,0.25,234.5,"3d",0.60,1.10,1.30,17,2017/11/23,12:38:54.5
430,46.887772,7.659718,788.6,0.28,209.5,"3d",0.60,1.10,1.30,17,2017/11/23,12:38:55
431,46.887772,7.659717,788.7,0.57,255.6,"3d",0.60,1.10,1.30,17,2017/11/23,12:38:55.5
432,46.887770,7.659713,789.6,0.46,221.5,"3d",0.60,1.10,1.30,17,2017/11/23,12:38:56
433,46.887770,7.659712,789.7,0.38,223.0,"3d",0.60,1.10,1.30,17,2017/11/23,12:38:56.5
434,46.887770,7.659712,787.4,0.46,235.5,"3d",0.60,1.10,1.30,16,2017/11/23,12:38:57
435,46.887770,7.659710,787.5,0.39,228.8,"3d",0.60,1.10,1.30,16,2017/11/23,12:38:57.5
436,46.887770,7.659705,788.7,0.28,223.4,"3d",0.60,1.10,1.30,17,2017/11/23,12:38:58
437,46.887770,7.659703,788.6,0.36,235.9,"3d",0.60,1.10,1.30,17,2017/11/23,12:38:58.5
438,46.887763,7.659700,788.5,0.47,148.0,"3d",0.60,1.10,1.30,17,2017/11/23,12:38:59
439,46.887762,7.659702,788.5,0.31,151.0,"3d",0.60,1.10,1.30,17,2017/11/23,12:38:59.5
440,46.887763,7.659705,788.6,0.65,146.6,"3d",0.60,1.10,1.30,16,2017/11/23,12:39:00
441,46.887757,7.659707,789.5,0.56,136.7,"3d",0.60,1.10,1.30,16,2017/11/23,12:39:00.5
442,46.887748,7.659705,790.9,0.28,132.2,"3d",0.70,1.10,1.30,16,2017/11/23,12:39:01
443,46.887748,7.659707,791.0,0.46,142.2,"3d",0.70,1.10,1.30,16,2017/11/23,12:39:01.5
444,46.887747,7.659710,790.4,0.48,141.9,"3d",0.70,1.20,1.40,15,2017/11/23,12:39:02
445,46.887747,7.659712,790.4,0.28,134.1,"3d",0.60,1.10,1.30,16,2017/11/23,12:39:02.5
446,46.887745,7.659715,790.3,0.31,139.4,"3d",0.70,1.20,1.40,15,2017/11/23,12:39:03
447,46.887738,7.659723,790.9,0.31,141.3,"3d",0.70,1.20,1.40,15,2017/11/23,12:39:03.5
448,46.887742,7.659717,790.3,0.10,114.4,"3d",0.70,1.20,1.40,15,2017/11/23,12:39:04
449,46.887743,7.659718,790.1,0.14,140.3,"3d",0.60,1.10,1.30,16,2017/11/23,12:39:04.5
450,46.887743,7.659707,788.9,0.17,160.9,"3d",0.60,1.10,1.30,16,2017/11/23,12:39:05
451,46.887737,7.659723,789.5,0.13,76.9,"3d",0.60,1.10,1.30,16,2017/11/23,12:39:05.5
452,46.887748,7.659720,789.4,0.25,35.3,"3d",0.70,1.20,1.40,15,2017/11/23,12:39:06
453,46.887747,7.659723,789.6,0.07,338.1,"3d",0.70,1.20,1.40,15,2017/11/23,12:39:06.5
454,46.887752,7.659730,791.7,0.02,96.8,"3d",0.70,1.10,1.30,15,2017/11/23,12:39:07
455,46.887757,7.659723,791.1,0.03,144.7,"3d",0.70,1.10,1.30,15,2017/11/23,12:39:07.5
456,46.887760,7.659718,786.5,0.23,132.4,"3d",0.60,1.20,1.30,15,2017/11/23,12:39:08
457,46.887755,7.659740,786.8,0.02,143.6,"3d",0.60,1.20,1.30,15,2017/11/23,12:39:08.5
458,46.887757,7.659743,791.0,0.04,76.2,"3d",0.70,1.10,1.30,15,2017/11/23,12:39:09
459,46.887758,7.659738,791.4,0.37,42.8,"3d",0.70,1.10,1.30,15,2017/11/23,12:39:09.5
460,46.887750,7.659728,788.3,0.42,30.8,"3d",0.60,1.10,1.30,16,2017/11/23,12:39:10
461,46.887752,7.659730,788.2,0.36,50.1,"3d",0.60,1.10,1.30,16,2017/11/23,12:39:10.5
462,46.887752,7.659733,790.5,0.41,49.4,"3d",0.60,1.10,1.30,17,2017/11/23,12:39:11
463,46.887753,7.659740,790.5,0.61,66.8,"3d",0.60,1.10,1.30,17,2017/11/23,12:39:11.5
464,46.887767,7.659742,788.1,0.48,67.5,"3d",0.60,1.10,1.30,17,2017/11/23,12:39:12
465,46.887765,7.659748,788.5,0.35,48.8,"3d",0.60,1.10,1.30,17,2017/11/23,12:39:12.5
466,46.887762,7.659750,791.0,0.25,41.6,"3d",0.60,1.10,1.30,17,2017/11/23,12:39:13
467,46.887757,7.659753,790.5,0.16,300.2,"3d",0.60,1.10,1.30,17,2017/11/23,12:39:13.5
468,46.887775,7.659762,789.5,0.63,347.9,"3d",0.60,1.10,1.30,17,2017/11/23,12:39:14
469,46.887778,7.659755,789.5,0.74,303.9,"3d",0.60,1.10,1.30,17,2017/11/23,12:39:14.5
470,46.887778,7.659745,788.7,0.42,323.3,"3d",0.60,1.10,1.30,17,2017/11/23,12:39:15
471,46.887785,7.659738,789.3,0.56,321.1,"3d",0.60,1.10,1.30,17,2017/11/23,12:39:15.5
472,46.887782,7.659735,788.3,0.57,335.8,"3d",0.60,1.10,1.30,17,2017/11/23,12:39:16
473,46.887782,7.659735,787.8,0.58,329.0,"3d",0.60,1.10,1.30,17,2017/11/23,12:39:16.5
474,46.887782,7.659735,787.7,0.24,301.1,"3d",0.60,1.10,1.30,17,2017/11/23,12:39:17
475,46.887782,7.659738,786.0,1.08,264.1,"3d",0.60,1.10,1.30,17,2017/11/23,12:39:17.5
476,46.887783,7.659732,786.6,0.33,238.5,"3d",0.60,1.10,1.30,16,2017/11/23,12:39:18
477,46.887782,7.659730,786.5,0.27,225.9,"3d",0.60,1.10,1.30,16,2017/11/23,12:39:18.5
478,46.887778,7.659730,787.2,0.37,256.3,"3d",0.60,1.10,1.30,17,2017/11/23,12:39:19
479,46.887775,7.659727,787.5,0.62,233.2,"3d",0.60,1.10,1.30,17,2017/11/23,12:39:19.5
480,46.887772,7.659717,789.8,0.42,251.1,"3d",0.60,1.10,1.30,17,2017/11/23,12:39:20
481,46.887765,7.659702,791.2,0.51,242.1,"3d",0.60,1.10,1.30,17,2017/11/23,12:39:20.5
482,46.887778,7.659713,787.5,0.59,235.0,"3d",0.60,1.10,1.30,17,2017/11/23,12:39:21
483,46.887777,7.659710,787.6,0.48,232.4,"3d",0.60,1.10,1.30,17,2017/11/23,12:39:21.5
484,46.887775,7.659715,788.2,0.43,204.3,"3d",0.60,1.10,1.30,16,2017/11/23,12:39:22
485,46.887773,7.659717,788.4,0.59,145.2,"3d",0.60,1.10,1.30,16,2017/11/23,12:39:22.5
486,46.887760,7.659717,790.4,0.28,156.9,"3d",0.60,1.10,1.30,17,2017/11/23,12:39:23
487,46.887762,7.659722,789.6,0.27,142.8,"3d",0.60,1.10,1.30,17,2017/11/23,12:39:23.5
488,46.887763,7.659723,788.3,0.39,131.0,"3d",0.70,1.20,1.40,15,2017/11/23,12:39:24
489,46.887765,7.659727,787.6,0.50,152.7,"3d",0.70,1.20,1.40,15,2017/11/23,12:39:24.5
490,46.887767,7.659723,787.5,0.34,143.3,"3d",0.70,1.20,1.40,15,2017/11/23,12:39:25
491,46.887765,7.659725,787.5,0.24,130.9,"3d",0.70,1.20,1.40,15,2017/11/23,12:39:25.5
492,46.887763,7.659725,787.9,0.29,132.4,"3d",0.70,1.20,1.40,15,2017/11/23,12:39:26
493,46.887760,7.659727,787.9,0.41,138.3,"3d",0.70,1.20,1.40,15,2017/11/23,12:39:26.5
494,46.887760,7.659732,788.3,0.87,48.7,"3d",0.70,1.10,1.30,16,2017/11/23,12:39:27
495,46.887762,7.659733,788.5,0.35,56.7,"3d",0.70,1.10,1.30,16,2017/11/23,12:39:27.5
496,46.887762,7.659733,788.4,0.26,38.0,"3d",0.60,1.10,1.30,17,2017/11/23,12:39:28
497,46.887763,7.659732,788.1,0.29,27.9,"3d",0.60,1.10,1.30,17,2017/11/23,12:39:28.5
498,46.887752,7.659748,788.9,0.34,52.3,"3d",0.60,1.10,1.30,17,2017/11/23,12:39:29
499,46.887755,7.659747,788.5,0.55,82.6,"3d",0.60,1.10,1.30,17,2017/11/23,12:39:29.5
500,46.887768,7.659740,788.2,0.55,50.8,"3d",0.60,1.10,1.30,17,2017/11/23,12:39:30
501,46.887768,7.659743,788.1,0.44,57.7,"3d",0.60,1.10,1.30,17,2017/11/23,12:39:30.5
502,46.887768,7.659747,787.7,0.19,325.3,"3d",0.60,1.10,1.30,17,2017/11/23,12:39:31
503,46.887768,7.659743,787.8,0.47,358.9,"3d",0.60,1.10,1.30,17,2017/11/23,12:39:31.5
504,46.887778,7.659752,787.8,0.97,333.7,"3d",0.60,1.10,1.30,17,2017/11/23,12:39:32
505,46.887780,7.659750,788.0,0.39,304.6,"3d",0.60,1.10,1.30,17,2017/11/23,12:39:32.5
506,46.887780,7.659747,788.8,0.27,355.6,"3d",0.60,1.10,1.30,17,2017/11/23,12:39:33
507,46.887780,7.659747,788.7,0.58,344.4,"3d",0.60,1.10,1.30,17,2017/11/23,12:39:33.5
508,46.887772,7.659745,786.9,0.41,316.6,"3d",0.60,1.20,1.40,16,2017/11/23,12:39:34
509,46.887773,7.659742,787.1,0.42,320.4,"3d",0.60,1.20,1.40,16,2017/11/23,12:39:34.5
510,46.887777,7.659738,787.3,0.48,351.1,"3d",0.60,1.20,1.40,16,2017/11/23,12:39:35
511,46.887778,7.659737,787.4,0.65,330.9,"3d",0.60,1.10,1.30,17,2017/11/23,12:39:35.5
512,46.887783,7.659737,787.8,0.34,334.6,"3d",0.60,1.20,1.40,16,2017/11/23,12:39:36
513,46.887783,7.659737,787.8,0.25,347.6,"3d",0.60,1.20,1.40,16,2017/11/23,12:39:36.5
514,46.887778,7.659733,787.4,0.65,271.7,"3d",0.60,1.10,1.30,17,2017/11/23,12:39:37
515,46.887777,7.659730,787.4,0.44,244.7,"3d",0.60,1.10,1.30,17,2017/11/23,12:39:37.5
516,46.887780,7.659732,787.3,0.38,246.4,"3d",0.60,1.10,1.30,16,2017/11/23,12:39:38
517,46.887780,7.659728,787.6,0.14,216.6,"3d",0.60,1.10,1.30,16,2017/11/23,12:39:38.5
518,46.887772,7.659713,787.2,0.12,181.8,"3d",0.60,1.10,1.30,17,2017/11/23,12:39:39
519,46.887772,7.659712,787.4,0.31,279.7,"3d",0.60,1.10,1.30,17,2017/11/23,12:39:39.5
520,46.887775,7.659713,788.1,0.39,232.2,"3d",0.60,1.10,1.30,17,2017/11/23,12:39:40
521,46.887775,7.659713,788.2,0.33,243.0,"3d",0.60,1.10,1.30,17,2017/11/23,12:39:40.5
522,46.887780,7.659713,788.5,0.28,250.3,"3d",0.60,1.10,1.30,17,2017/11/23,12:39:41
523,46.887778,7.659713,788.3,0.47,233.6,"3d",0.60,1.10,1.30,17,2017/11/23,12:39:41.5
524,46.887778,7.659717,789.2,0.30,236.7,"3d",0.60,1.10,1.30,17,2017/11/23,12:39:42
525,46.887777,7.659713,789.1,0.42,219.9,"3d",0.60,1.10,1.30,17,2017/11/23,12:39:42.5
526,46.887773,7.659707,789.2,0.37,200.7,"3d",0.60,1.10,1.30,17,2017/11/23,12:39:43
527,46.887770,7.659703,788.8,0.37,141.7,"3d",0.60,1.10,1.30,17,2017/11/23,12:39:43.5
528,46.887758,7.659695,788.2,0.75,160.1,"3d",0.60,1.10,1.30,17,2017/11/23,12:39:44
529,46.887757,7.659698,788.3,0.27,117.6,"3d",0.60,1.10,1.30,17,2017/11/23,12:39:44.5
530,46.887760,7.659703,790.6,0.23,123.7,"3d",0.60,1.10,1.30,17,2017/11/23,12:39:45
531,46.887760,7.659705,789.9,0.23,156.7,"3d",0.60,1.10,1.30,17,2017/11/23,12:39:45.5
532,46.887773,7.659700,785.8,0.55,140.1,"3d",0.60,1.10,1.30,16,2017/11/23,12:39:46
533,46.887767,7.659705,786.8,0.40,119.9,"3d",0.60,1.10,1.30,16,2017/11/23,12:39:46.5
534,46.887763,7.659705,787.5,0.62,151.9,"3d",0.60,1.10,1.30,17,2017/11/23,12:39:47
535,46.887762,7.659707,787.4,0.47,139.3,"3d",0.60,1.10,1.30,17,2017/11/23,12:39:47.5
536,46.887757,7.659705,786.7,0.40,99.8,"3d",0.60,1.10,1.30,17,2017/11/23,12:39:48
537,46.887755,7.659708,786.9,0.49,80.3,"3d",0.60,1.10,1.30,17,2017/11/23,12:39:48.5
538,46.887762,7.659708,788.3,0.40,58.5,"3d",0.60,1.10,1.30,17,2017/11/23,12:39:49
539,46.887762,7.659710,788.4,0.19,29.2,"3d",0.60,1.10,1.30,17,2017/11/23,12:39:49.5
540,46.887762,7.659715,788.4,0.34,74.7,"3d",0.60,1.10,1.30,17,2017/11/23,12:39:50
541,46.887763,7.659718,788.3,0.39,60.0,"3d",0.60,1.10,1.30,17,2017/11/23,12:39:50.5
542,46.887760,7.659717,786.5,0.31,54.5,"3d",0.60,1.10,1.30,17,2017/11/23,12:39:51
543,46.887762,7.659717,786.5,0.55,72.6,"3d",0.60,1.10,1.30,17,2017/11/23,12:39:51.5
544,46.887768,7.659728,788.1,0.42,56.0,"3d",0.60,1.10,1.30,17,2017/11/23,12:39:52
545,46.887770,7.659732,788.1,0.25,71.1,"3d",0.60,1.10,1.30,17,2017/11/23,12:39:52.5
546,46.887772,7.659735,788.2,0.10,35.1,"3d",0.60,1.10,1.30,17,2017/11/23,12:39:53
547,46.887773,7.659737,788.2,0.19,355.4,"3d",0.60,1.10,1.30,17,2017/11/23,12:39:53.5
548,46.887773,7.659737,784.6,0.21,11.5,"3d",0.60,1.10,1.30,17,2017/11/23,12:39:54
549,46.887773,7.659735,784.5,0.37,335.8,"3d",0.60,1.10,1.30,17,2017/11/23,12:39:54.5
550,46.887782,7.659733,788.0,0.29,328.6,"3d",0.60,1.10,1.30,17,2017/11/23,12:39:55
551,46.887782,7.659732,787.7,0.65,330.4,"3d",0.60,1.10,1.30,17,2017/11/23,12:39:55.5
552,46.887770,7.659733,786.5,0.61,321.5,"3d",0.60,1.10,1.30,17,2017/11/23,12:39:56
553,46.887770,7.659733,786.7,0.48,325.6,"3d",0.60,1.10,1.30,17,2017/11/23,12:39:56.5
554,46.887782,7.659718,787.4,0.52,327.1,"3d",0.60,1.20,1.40,16,2017/11/23,12:39:57
555,46.887783,7.659717,787.3,0.57,322.5,"3d",0.60,1.20,1.40,16,2017/11/23,12:39:57.5
556,46.887785,7.659718,788.2,0.28,230.3,"3d",0.60,1.20,1.40,16,2017/11/23,12:39:58
557,46.887785,7.659718,788.0,0.20,280.5,"3d",0.60,1.20,1.40,16,2017/11/23,12:39:58.5
558,46.887783,7.659720,786.7,0.34,233.6,"3d",0.60,1.10,1.30,17,2017/11/23,12:39:59
559,46.887782,7.659718,786.8,0.45,239.9,"3d",0.60,1.10,1.30,17,2017/11/23,12:39:59.5
560,46.887775,7.659703,788.1,0.33,237.7,"3d",0.60,1.10,1.30,16,2017/11/23,12:40:00
561,46.887775,7.659702,787.9,0.30,263.7,"3d",0.60,1.10,1.30,16,2017/11/23,12:40:00.5
562,46.887778,7.659710,788.4,0.47,239.3,"3d",0.60,1.10,1.30,16,2017/11/23,12:40:01
563,46.887778,7.659710,788.2,0.33,238.1,"3d",0.60,1.10,1.30,16,2017/11/23,12:40:01.5
564,46.887778,7.659712,787.8,0.50,250.7,"3d",0.60,1.10,1.30,17,2017/11/23,12:40:02
565,46.887775,7.659705,788.2,0.38,237.4,"3d",0.60,1.10,1.30,17,2017/11/23,12:40:02.5
566,46.887770,7.659695,788.6,0.43,222.2,"3d",0.60,1.10,1.30,17,2017/11/23,12:40:03
567,46.887770,7.659695,788.6,0.29,246.2,"3d",0.60,1.10,1.30,17,2017/11/23,12:40:03.5
568,46.887778,7.659702,788.6,0.26,188.7,"3d",0.60,1.10,1.30,17,2017/11/23,12:40:04
569,46.887778,7.659708,789.2,0.39,177.7,"dgps",0.60,1.10,1.30,17,2017/11/23,12:40:04.5
570,46.887767,7.659703,789.8,0.58,164.7,"dgps",0.60,1.10,1.30,17,2017/11/23,12:40:05
571,46.887763,7.659703,789.9,0.35,143.3,"dgps",0.60,1.10,1.30,17,2017/11/23,12:40:05.5
572,46.887780,7.659717,788.9,0.44,144.9,"dgps",0.70,1.20,1.40,15,2017/11/23,12:40:06
573,46.887778,7.659718,788.8,0.52,149.1,"dgps",0.70,1.20,1.40,15,2017/11/23,12:40:06.5
574,46.887765,7.659722,787.7,0.39,149.8,"dgps",0.70,1.20,1.40,15,2017/11/23,12:40:07
575,46.887763,7.659725,787.5,0.53,149.7,"dgps",0.70,1.20,1.40,15,2017/11/23,12:40:07.5
576,46.887760,7.659720,788.5,0.44,148.7,"dgps",0.70,1.10,1.30,16,2017/11/23,12:40:08
577,46.887758,7.659720,788.5,0.28,164.7,"dgps",0.70,1.10,1.30,16,2017/11/23,12:40:08.5
578,46.887760,7.659720,787.1,0.29,142.3,"dgps",0.70,1.10,1.30,16,2017/11/23,12:40:09
579,46.887762,7.659720,787.0,0.25,119.2,"dgps",0.70,1.10,1.30,16,2017/11/23,12:40:09.5
580,46.887762,7.659707,788.3,0.25,128.2,"dgps",0.70,1.20,1.40,15,2017/11/23,12:40:10
581,46.887762,7.659710,788.6,0.88,31.4,"dgps",0.70,1.20,1.40,15,2017/11/23,12:40:10.5
582,46.887772,7.659710,786.4,0.22,79.5,"dgps",0.60,1.10,1.30,17,2017/11/23,12:40:11
583,46.887772,7.659710,786.3,0.22,45.1,"dgps",0.60,1.10,1.30,17,2017/11/23,12:40:11.5
584,46.887765,7.659743,788.3,0.61,80.1,"dgps",0.60,1.10,1.30,17,2017/11/23,12:40:12
585,46.887773,7.659743,787.5,0.47,56.1,"dgps",0.60,1.10,1.30,17,2017/11/23,12:40:12.5
586,46.887768,7.659755,787.5,0.46,53.4,"dgps",0.60,1.10,1.30,17,2017/11/23,12:40:13
587,46.887770,7.659757,787.4,0.67,59.3,"dgps",0.60,1.10,1.30,17,2017/11/23,12:40:13.5
588,46.887773,7.659753,788.5,0.59,51.9,"dgps",0.60,1.10,1.30,17,2017/11/23,12:40:14
589,46.887775,7.659757,788.5,0.31,42.4,"dgps",0.60,1.10,1.30,17,2017/11/23,12:40:14.5
590,46.887775,7.659760,787.0,0.36,61.0,"dgps",0.60,1.10,1.30,17,2017/11/23,12:40:15
591,46.887775,7.659760,786.9,0.08,272.0,"dgps",0.60,1.10,1.30,17,2017/11/23,12:40:15.5
592,46.887782,7.659758,787.9,0.19,343.1,"dgps",0.60,1.10,1.30,17,2017/11/23,12:40:16
593,46.887783,7.659762,788.1,0.20,243.5,"dgps",0.60,1.10,1.30,17,2017/11/23,12:40:16.5
594,46.887795,7.659755,790.8,0.45,330.0,"dgps",0.60,1.10,1.30,17,2017/11/23,12:40:17
595,46.887797,7.659752,791.0,0.62,336.7,"dgps",0.60,1.10,1.30,17,2017/11/23,12:40:17.5
596,46.887812,7.659750,792.2,0.44,319.6,"dgps",0.60,1.20,1.40,16,2017/11/23,12:40:18
597,46.887795,7.659748,790.6,0.44,331.3,"dgps",0.60,1.20,1.40,16,2017/11/23,12:40:18.5
598,46.887782,7.659747,788.8,0.50,328.1,"dgps",0.60,1.20,1.40,16,2017/11/23,12:40:19
599,46.887783,7.659747,788.1,0.42,321.3,"dgps",0.60,1.20,1.40,16,2017/11/23,12:40:19.5
600,46.887792,7.659747,788.5,0.42,331.1,"dgps",0.60,1.20,1.40,16,2017/11/23,12:40:20
601,46.887795,7.659743,788.4,0.46,324.5,"dgps",0.60,1.20,1.40,16,2017/11/23,12:40:20.5
602,46.887790,7.659738,788.0,0.33,256.1,"dgps",0.60,1.10,1.30,17,2017/11/23,12:40:21
603,46.887787,7.659728,787.7,0.33,249.4,"dgps",0.60,1.10,1.30,17,2017/11/23,12:40:21.5
604,46.887788,7.659715,788.7,0.39,237.0,"dgps",0.60,1.10,1.30,17,2017/11/23,12:40:22
605,46.887787,7.659707,788.9,0.29,235.4,"dgps",0.60,1.10,1.30,17,2017/11/23,12:40:22.5
606,46.887782,7.659707,788.9,0.26,231.7,"dgps",0.60,1.10,1.30,17,2017/11/23,12:40:23
607,46.887788,7.659715,788.3,0.38,232.0,"dgps",0.60,1.10,1.30,17,2017/11/23,12:40:23.5
608,46.887792,7.659720,788.3,0.43,242.1,"dgps",0.60,1.10,1.30,17,2017/11/23,12:40:24
609,46.887790,7.659718,788.4,0.47,238.8,"dgps",0.60,1.10,1.30,17,2017/11/23,12:40:24.5
610,46.887785,7.659712,787.8,0.35,224.7,"dgps",0.60,1.10,1.30,17,2017/11/23,12:40:25
611,46.887783,7.659710,787.7,0.33,241.2,"dgps",0.60,1.10,1.30,17,2017/11/23,12:40:25.5
612,46.887782,7.659705,787.7,0.31,212.8,"dgps",0.60,1.10,1.30,16,2017/11/23,12:40:26
613,46.887778,7.659703,787.7,0.30,204.7,"dgps",0.60,1.10,1.30,16,2017/11/23,12:40:26.5
614,46.887782,7.659708,787.7,0.33,196.9,"dgps",0.60,1.10,1.30,17,2017/11/23,12:40:27
615,46.887783,7.659712,787.5,0.30,131.9,"dgps",0.60,1.10,1.30,17,2017/11/23,12:40:27.5
616,46.887790,7.659717,787.3,0.45,128.9,"dgps",0.70,1.20,1.40,15,2017/11/23,12:40:28
617,46.887787,7.659710,786.0,0.18,174.1,"dgps",0.70,1.20,1.40,15,2017/11/23,12:40:28.5
618,46.887780,7.659712,787.1,0.30,140.5,"dgps",0.60,1.10,1.30,16,2017/11/23,12:40:29
619,46.887778,7.659713,787.0,0.21,148.0,"dgps",0.60,1.10,1.30,16,2017/11/23,12:40:29.5
620,46.887775,7.659718,785.4,0.24,146.7,"dgps",0.60,1.10,1.30,16,2017/11/23,12:40:30
621,46.887773,7.659720,785.6,0.30,135.1,"dgps",0.60,1.10,1.30,16,2017/11/23,12:40:30.5
622,46.887770,7.659720,786.1,0.45,160.3,"dgps",0.60,1.10,1.30,16,2017/11/23,12:40:31
623,46.887767,7.659722,786.3,0.47,148.3,"dgps",0.60,1.10,1.30,16,2017/11/23,12:40:31.5
624,46.887767,7.659722,786.5,0.34,138.5,"dgps",0.70,1.10,1.30,16,2017/11/23,12:40:32
625,46.887765,7.659722,786.5,0.29,146.2,"dgps",0.70,1.10,1.30,16,2017/11/23,12:40:32.5
626,46.887763,7.659722,786.9,0.15,133.1,"dgps",0.60,1.10,1.30,16,2017/11/23,12:40:33
627,46.887763,7.659725,786.8,0.28,99.5,"dgps",0.60,1.10,1.30,16,2017/11/23,12:40:33.5
628,46.887762,7.659730,787.7,0.63,83.9,"dgps",0.60,1.10,1.30,17,2017/11/23,12:40:34
629,46.887762,7.659743,788.2,0.46,53.1,"dgps",0.60,1.10,1.30,17,2017/11/23,12:40:34.5
630,46.887767,7.659738,787.8,0.07,71.9,"dgps",0.60,1.10,1.30,17,2017/11/23,12:40:35
631,46.887767,7.659738,787.7,0.50,70.8,"dgps",0.60,1.10,1.30,17,2017/11/23,12:40:35.5
632,46.887767,7.659738,787.8,0.48,49.4,"dgps",0.60,1.10,1.30,17,2017/11/23,12:40:36
633,46.887768,7.659732,787.1,0.35,46.7,"dgps",0.60,1.10,1.30,17,2017/11/23,12:40:36.5
634,46.887768,7.659740,786.9,0.77,66.6,"dgps",0.60,1.10,1.30,17,2017/11/23,12:40:37
635,46.887770,7.659743,787.2,0.45,56.8,"dgps",0.60,1.10,1.30,17,2017/11/23,12:40:37.5
636,46.887773,7.659748,787.3,0.34,34.7,"dgps",0.60,1.10,1.30,17,2017/11/23,12:40:38
637,46.887775,7.659752,787.4,0.40,69.9,"dgps",0.60,1.10,1.30,17,2017/11/23,12:40:38.5
638,46.887777,7.659753,787.4,0.29,42.6,"dgps",0.60,1.10,1.30,17,2017/11/23,12:40:39
639,46.887778,7.659753,787.3,0.13,12.2,"dgps",0.60,1.10,1.30,17,2017/11/23,12:40:39.5
640,46.887783,7.659757,786.1,0.63,327.1,"dgps",0.60,1.10,1.30,17,2017/11/23,12:40:40
641,46.887793,7.659753,787.1,0.23,256.1,"dgps",0.60,1.10,1.30,17,2017/11/23,12:40:40.5
642,46.887780,7.659750,786.8,0.25,327.3,"dgps",0.60,1.10,1.30,17,2017/11/23,12:40:41
643,46.887782,7.659750,786.8,0.29,321.6,"dgps",0.60,1.10,1.30,17,2017/11/23,12:40:41.5
644,46.887773,7.659750,785.0,0.42,313.0,"dgps",0.60,1.20,1.40,16,2017/11/23,12:40:42
645,46.887777,7.659747,786.3,0.57,345.6,"dgps",0.60,1.20,1.40,16,2017/11/23,12:40:42.5
646,46.887778,7.659747,786.0,0.38,318.7,"dgps",0.60,1.20,1.40,16,2017/11/23,12:40:43
647,46.887778,7.659745,785.6,0.39,329.8,"dgps",0.60,1.20,1.40,16,2017/11/23,12:40:43.5
648,46.887782,7.659742,786.1,0.35,331.2,"dgps",0.60,1.20,1.40,16,2017/11/23,12:40:44
649,46.887782,7.659738,786.9,0.17,251.3,"3d",0.60,1.10,1.30,17,2017/11/23,12:40:44.5
650,46.887783,7.659733,786.8,0.61,268.9,"3d",0.60,1.10,1.30,17,2017/11/23,12:40:45
651,46.887782,7.659730,786.7,0.67,258.4,"3d",0.60,1.10,1.30,17,2017/11/23,12:40:45.5
652,46.887785,7.659732,787.2,0.31,228.8,"3d",0.60,1.10,1.30,17,2017/11/23,12:40:46
653,46.887783,7.659732,786.7,0.38,237.2,"3d",0.60,1.10,1.30,17,2017/11/23,12:40:46.5
654,46.887778,7.659718,786.6,0.61,245.6,"3d",0.60,1.10,1.30,17,2017/11/23,12:40:47
655,46.887777,7.659717,786.3,0.45,243.4,"3d",0.60,1.10,1.30,17,2017/11/23,12:40:47.5
656,46.887780,7.659723,787.5,0.38,244.6,"3d",0.60,1.10,1.30,17,2017/11/23,12:40:48
657,46.887778,7.659717,787.5,0.67,248.1,"3d",0.60,1.10,1.30,17,2017/11/23,12:40:48.5
658,46.887775,7.659712,786.9,0.34,236.6,"3d",0.60,1.10,1.30,17,2017/11/23,12:40:49
659,46.887773,7.659708,786.9,0.29,206.0,"3d",0.60,1.10,1.30,17,2017/11/23,12:40:49.5
660,46.887767,7.659705,786.4,0.13,83.5,"3d",0.60,1.10,1.30,16,2017/11/23,12:40:50
661,46.887767,7.659707,786.2,0.86,156.8,"3d",0.60,1.10,1.30,16,2017/11/23,12:40:50.5
662,46.887762,7.659707,785.7,0.57,140.6,"3d",0.70,1.20,1.40,15,2017/11/23,12:40:51
663,46.887760,7.659708,785.7,0.38,160.1,"3d",0.70,1.20,1.40,15,2017/11/23,12:40:51.5
664,46.887757,7.659713,788.4,0.31,151.0,"3d",0.60,1.10,1.30,17,2017/11/23,12:40:52
665,46.887755,7.659717,788.2,0.45,134.5,"3d",0.60,1.10,1.30,17,2017/11/23,12:40:52.5
666,46.887753,7.659718,788.2,0.47,147.4,"3d",0.70,1.10,1.30,16,2017/11/23,12:40:53
667,46.887752,7.659720,788.2,0.32,134.1,"3d",0.70,1.10,1.30,16,2017/11/23,12:40:53.5
668,46.887753,7.659720,787.3,0.41,143.7,"3d",0.70,1.20,1.40,15,2017/11/23,12:40:54
669,46.887753,7.659722,787.2,0.25,137.3,"3d",0.70,1.20,1.40,15,2017/11/23,12:40:54.5
670,46.887752,7.659723,786.6,0.08,59.0,"3d",0.70,1.20,1.40,15,2017/11/23,12:40:55
671,46.887748,7.659730,787.1,0.68,46.1,"3d",0.70,1.20,1.40,15,2017/11/23,12:40:55.5
672,46.887748,7.659738,787.5,0.52,60.8,"3d",0.60,1.10,1.30,17,2017/11/23,12:40:56
673,46.887748,7.659742,787.6,0.68,57.5,"3d",0.60,1.10,1.30,17,2017/11/23,12:40:56.5
674,46.887753,7.659747,788.5,0.34,29.0,"3d",0.60,1.10,1.30,17,2017/11/23,12:40:57
675,46.887758,7.659740,787.7,0.29,47.8,"3d",0.60,1.10,1.30,17,2017/11/23,12:40:57.5
676,46.887757,7.659725,787.4,0.50,42.5,"3d",0.60,1.10,1.30,17,2017/11/23,12:40:58
677,46.887758,7.659730,787.7,0.41,49.5,"3d",0.60,1.10,1.30,17,2017/11/23,12:40:58.5
678,46.887767,7.659742,786.6,0.61,63.2,"3d",0.60,1.10,1.30,17,2017/11/23,12:40:59
679,46.887768,7.659743,786.4,0.39,41.8,"3d",0.60,1.10,1.30,17,2017/11/23,12:40:59.5
680,46.887770,7.659747,785.3,0.27,32.6,"3d",0.60,1.10,1.30,17,2017/11/23,12:41:00
681,46.887770,7.659747,785.3,0.21,12.8,"3d",0.60,1.10,1.30,17,2017/11/23,12:41:00.5
682,46.887768,7.659747,787.2,0.19,319.7,"3d",0.60,1.10,1.30,17,2017/11/23,12:41:01
683,46.887768,7.659747,787.4,0.29,335.5,"3d",0.60,1.10,1.30,17,2017/11/23,12:41:01.5
684,46.887777,7.659748,786.4,0.17,102.7,"3d",0.60,1.20,1.40,16,2017/11/23,12:41:02
685,46.887772,7.659748,785.7,0.23,328.0,"3d",0.60,1.20,1.40,16,2017/11/23,12:41:02.5
686,46.887782,7.659737,789.0,0.34,318.5,"3d",0.60,1.20,1.40,16,2017/11/23,12:41:03
687,46.887772,7.659745,786.7,0.43,342.3,"3d",0.60,1.20,1.40,16,2017/11/23,12:41:03.5
688,46.887777,7.659737,788.1,0.58,329.5,"3d",0.60,1.20,1.40,16,2017/11/23,12:41:04
689,46.887777,7.659735,788.1,0.32,312.8,"3d",0.60,1.20,1.40,16,2017/11/23,12:41:04.5
690,46.887777,7.659743,786.3,0.63,332.7,"3d",0.60,1.20,1.40,16,2017/11/23,12:41:05
691,46.887778,7.659743,786.3,0.37,321.4,"3d",0.60,1.10,1.30,17,2017/11/23,12:41:05.5
692,46.887783,7.659730,787.3,0.35,298.3,"3d",0.60,1.20,1.40,16,2017/11/23,12:41:06
693,46.887785,7.659727,787.5,0.48,287.8,"3d",0.60,1.20,1.40,16,2017/11/23,12:41:06.5
694,46.887787,7.659730,788.2,0.21,274.6,"3d",0.60,1.20,1.40,16,2017/11/23,12:41:07
695,46.887785,7.659730,788.3,0.02,255.0,"3d",0.60,1.10,1.30,17,2017/11/23,12:41:07.5
696,46.887778,7.659732,784.9,0.17,210.9,"3d",0.70,1.20,1.40,15,2017/11/23,12:41:08
697,46.887777,7.659723,784.7,0.50,228.9,"3d",0.70,1.20,1.40,15,2017/11/23,12:41:08.5
698,46.887780,7.659715,787.5,0.44,244.0,"3d",0.60,1.10,1.30,16,2017/11/23,12:41:09
699,46.887782,7.659712,788.6,0.42,241.9,"3d",0.60,1.10,1.30,16,2017/11/23,12:41:09.5
700,46.887783,7.659707,788.1,0.40,233.8,"3d",0.60,1.10,1.30,17,2017/11/23,12:41:10
701,46.887782,7.659705,788.2,0.67,240.0,"3d",0.60,1.10,1.30,17,2017/11/23,12:41:10.5
702,46.887782,7.659710,789.1,0.61,227.7,"3d",0.60,1.10,1.30,17,2017/11/23,12:41:11
703,46.887780,7.659710,788.7,0.23,230.9,"3d",0.60,1.10,1.30,17,2017/11/23,12:41:11.5
704,46.887780,7.659703,788.8,0.32,197.4,"3d",0.60,1.10,1.30,17,2017/11/23,12:41:12
705,46.887778,7.659702,788.9,0.27,233.8,"3d",0.60,1.10,1.30,17,2017/11/23,12:41:12.5
706,46.887775,7.659700,788.6,0.29,222.2,"3d",0.60,1.10,1.30,16,2017/11/23,12:41:13
707,46.887777,7.659697,790.2,0.06,200.4,"3d",0.60,1.10,1.30,16,2017/11/23,12:41:13.5
708,46.887773,7.659715,785.8,0.10,296.1,"3d",0.60,1.20,1.40,16,2017/11/23,12:41:14
709,46.887772,7.659713,785.7,0.17,289.3,"3d",0.60,1.20,1.40,16,2017/11/23,12:41:14.5
710,46.887783,7.659697,789.4,0.27,50.5,"3d",0.60,1.10,1.30,17,2017/11/23,12:41:15
711,46.887775,7.659705,787.3,0.26,29.6,"3d",0.60,1.10,1.30,17,2017/11/23,12:41:15.5
712,46.887763,7.659715,784.3,0.17,43.5,"3d",0.60,1.10,1.30,16,2017/11/23,12:41:16
713,46.887767,7.659717,784.4,0.45,65.5,"3d",0.60,1.10,1.30,16,2017/11/23,12:41:16.5
714,46.887770,7.659710,784.5,0.42,56.3,"3d",0.60,1.10,1.30,17,2017/11/23,12:41:17
715,46.887773,7.659717,784.6,0.47,49.1,"3d",0.60,1.10,1.30,17,2017/11/23,12:41:17.5
716,46.887775,7.659717,785.8,0.57,64.3,"3d",0.60,1.10,1.30,17,2017/11/23,12:41:18
717,46.887775,7.659720,786.0,0.54,52.8,"3d",0.60,1.10,1.30,17,2017/11/23,12:41:18.5
718,46.887768,7.659720,788.7,0.52,56.3,"3d",0.60,1.10,1.30,17,2017/11/23,12:41:19
719,46.887770,7.659723,788.6,0.40,59.0,"3d",0.60,1.10,1.30,17,2017/11/23,12:41:19.5
720,46.887780,7.659732,786.5,0.20,62.4,"3d",0.60,1.10,1.30,17,2017/11/23,12:41:20
721,46.887780,7.659733,786.5,0.21,163.4,"3d",0.60,1.10,1.30,17,2017/11/23,12:41:20.5
722,46.887780,7.659728,786.6,0.13,159.6,"3d",0.60,1.10,1.30,17,2017/11/23,12:41:21
723,46.887780,7.659727,786.5,0.59,140.6,"3d",0.60,1.10,1.30,17,2017/11/23,12:41:21.5
724,46.887778,7.659732,786.6,0.48,137.5,"3d",0.60,1.10,1.30,16,2017/11/23,12:41:22
725,46.887778,7.659732,786.4,0.53,144.2,"3d",0.60,1.10,1.30,16,2017/11/23,12:41:22.5
726,46.887777,7.659738,786.3,0.61,132.3,"3d",0.60,1.10,1.30,17,2017/11/23,12:41:23
727,46.887770,7.659743,787.0,0.61,134.3,"3d",0.60,1.10,1.30,17,2017/11/23,12:41:23.5
728,46.887768,7.659745,787.3,0.54,143.9,"3d",0.60,1.10,1.30,17,2017/11/23,12:41:24
729,46.887767,7.659745,787.3,0.38,135.4,"3d",0.60,1.10,1.30,17,2017/11/23,12:41:24.5
730,46.887767,7.659748,787.4,0.38,255.0,"3d",0.60,1.10,1.30,17,2017/11/23,12:41:25
731,46.887767,7.659747,787.3,0.34,221.4,"3d",0.60,1.10,1.30,17,2017/11/23,12:41:25.5
732,46.887768,7.659745,787.3,0.24,226.4,"3d",0.60,1.10,1.30,16,2017/11/23,12:41:26
733,46.887767,7.659743,787.4,0.13,178.8,"3d",0.60,1.10,1.30,16,2017/11/23,12:41:26.5
734,46.887757,7.659738,787.5,0.38,241.1,"3d",0.60,1.10,1.30,17,2017/11/23,12:41:27
735,46.887755,7.659735,787.7,0.30,241.4,"3d",0.60,1.10,1.30,17,2017/11/23,12:41:27.5
736,46.887763,7.659735,787.0,0.36,226.7,"3d",0.60,1.10,1.30,17,2017/11/23,12:41:28
737,46.887767,7.659737,786.4,0.50,240.4,"3d",0.60,1.10,1.30,17,2017/11/23,12:41:28.5
738,46.887767,7.659735,787.2,0.40,236.5,"3d",0.60,1.10,1.30,17,2017/11/23,12:41:29
739,46.887767,7.659732,787.2,0.40,219.4,"3d",0.60,1.10,1.30,17,2017/11/23,12:41:29.5
740,46.887762,7.659730,787.5,0.45,229.0,"3d",0.60,1.10,1.30,17,2017/11/23,12:41:30
741,46.887762,7.659730,787.2,0.45,222.1,"3d",0.60,1.10,1.30,17,2017/11/23,12:41:30.5
742,46.887767,7.659732,785.7,0.34,234.3,"3d",0.60,1.10,1.30,16,2017/11/23,12:41:31
743,46.887765,7.659730,785.8,0.14,305.1,"3d",0.60,1.10,1.30,16,2017/11/23,12:41:31.5
744,46.887758,7.659728,784.9,0.40,307.0,"3d",0.60,1.10,1.30,17,2017/11/23,12:41:32
745,46.887760,7.659728,785.2,0.10,13.0,"3d",0.60,1.10,1.30,17,2017/11/23,12:41:32.5
746,46.887757,7.659738,784.4,0.13,187.1,"3d",0.60,1.20,1.40,16,2017/11/23,12:41:33
747,46.887758,7.659732,785.2,0.20,313.3,"3d",0.60,1.20,1.40,16,2017/11/23,12:41:33.5
748,46.887757,7.659727,786.2,0.15,261.4,"3d",0.60,1.10,1.30,17,2017/11/23,12:41:34
749,46.887758,7.659725,786.4,0.10,332.1,"3d",0.60,1.10,1.30,17,2017/11/23,12:41:34.5
750,46.887755,7.659723,786.1,0.28,297.3,"3d",0.60,1.20,1.40,16,2017/11/23,12:41:35
751,46.887757,7.659720,786.3,0.40,307.9,"3d",0.60,1.20,1.40,16,2017/11/23,12:41:35.5
752,46.887758,7.659723,785.9,0.49,339.0,"3d",0.70,1.20,1.40,15,2017/11/23,12:41:36
753,46.887760,7.659720,786.1,0.55,321.9,"3d",0.70,1.20,1.40,15,2017/11/23,12:41:36.5
754,46.887765,7.659713,787.0,0.58,322.2,"3d",0.60,1.20,1.40,16,2017/11/23,12:41:37
755,46.887772,7.659708,787.8,0.53,330.6,"3d",0.60,1.20,1.40,16,2017/11/23,12:41:37.5
756,46.887770,7.659707,786.8,0.63,323.9,"3d",0.60,1.20,1.40,16,2017/11/23,12:41:38
757,46.887760,7.659713,785.3,0.49,346.2,"3d",0.60,1.20,1.40,16,2017/11/23,12:41:38.5
758,46.887767,7.659712,786.4,0.11,322.5,"3d",0.60,1.20,1.40,16,2017/11/23,12:41:39
759,46.887772,7.659712,786.9,0.32,291.2,"3d",0.60,1.20,1.40,16,2017/11/23,12:41:39.5
760,46.887775,7.659710,786.9,0.18,55.3,"3d",0.60,1.10,1.30,17,2017/11/23,12:41:40
761,46.887775,7.659713,786.6,0.41,83.4,"3d",0.60,1.10,1.30,17,2017/11/23,12:41:40.5
762,46.887773,7.659720,786.0,0.52,52.7,"3d",0.60,1.10,1.30,17,2017/11/23,12:41:41
763,46.887775,7.659720,786.0,0.54,52.6,"3d",0.60,1.10,1.30,17,2017/11/23,12:41:41.5
764,46.887768,7.659718,786.3,0.54,77.3,"3d",0.60,1.10,1.30,17,2017/11/23,12:41:42
765,46.887770,7.659722,786.4,0.74,50.5,"3d",0.60,1.10,1.30,17,2017/11/23,12:41:42.5
766,46.887775,7.659717,787.3,0.66,58.8,"3d",0.60,1.10,1.30,17,2017/11/23,12:41:43
767,46.887775,7.659722,787.3,0.34,79.3,"3d",0.60,1.10,1.30,17,2017/11/23,12:41:43.5
768,46.887772,7.659718,786.1,0.22,11.3,"3d",0.60,1.10,1.30,17,2017/11/23,12:41:44
769,46.887772,7.659715,785.9,0.19,62.2,"3d",0.60,1.10,1.30,17,2017/11/23,12:41:44.5
770,46.887775,7.659725,786.1,0.11,301.5,"3d",0.60,1.10,1.30,17,2017/11/23,12:41:45
771,46.887777,7.659723,786.0,0.04,18.9,"3d",0.60,1.10,1.30,17,2017/11/23,12:41:45.5
772,46.887775,7.659735,786.6,0.17,160.7,"3d",0.70,1.20,1.40,15,2017/11/23,12:41:46
773,46.887773,7.659740,787.0,0.16,186.9,"3d",0.70,1.20,1.40,15,2017/11/23,12:41:46.5
774,46.887773,7.659737,787.0,0.43,138.3,"3d",0.60,1.10,1.30,16,2017/11/23,12:41:47
775,46.887770,7.659740,787.4,0.47,142.2,"3d",0.60,1.10,1.30,16,2017/11/23,12:41:47.5
776,46.887770,7.659742,786.9,0.58,147.3,"3d",0.60,1.10,1.30,16,2017/11/23,12:41:48
777,46.887767,7.659745,787.0,0.76,135.9,"3d",0.60,1.10,1.30,16,2017/11/23,12:41:48.5
778,46.887762,7.659747,787.0,0.67,136.9,"3d",0.60,1.10,1.30,16,2017/11/23,12:41:49
779,46.887763,7.659748,786.5,0.46,144.8,"3d",0.60,1.10,1.30,16,2017/11/23,12:41:49.5
780,46.887762,7.659748,786.3,0.55,126.2,"3d",0.60,1.10,1.30,17,2017/11/23,12:41:50
781,46.887762,7.659750,786.3,0.27,202.7,"3d",0.60,1.10,1.30,17,2017/11/23,12:41:50.5
782,46.887760,7.659745,787.0,0.13,244.3,"3d",0.60,1.10,1.30,17,2017/11/23,12:41:51
783,46.887760,7.659743,787.1,0.20,111.3,"3d",0.60,1.10,1.30,17,2017/11/23,12:41:51.5
784,46.887762,7.659743,787.3,0.14,245.3,"3d",0.60,1.10,1.30,17,2017/11/23,12:41:52
785,46.887762,7.659742,787.4,0.35,273.2,"3d",0.60,1.10,1.30,17,2017/11/23,12:41:52.5
786,46.887753,7.659730,786.5,0.40,210.3,"3d",0.60,1.10,1.30,16,2017/11/23,12:41:53
787,46.887752,7.659728,786.7,0.48,223.3,"3d",0.60,1.10,1.30,16,2017/11/23,12:41:53.5
788,46.887757,7.659737,787.8,0.43,237.4,"3d",0.60,1.10,1.30,17,2017/11/23,12:41:54
789,46.887757,7.659735,787.7,0.51,231.1,"3d",0.60,1.10,1.30,17,2017/11/23,12:41:54.5
790,46.887752,7.659730,787.8,0.36,240.3,"3d",0.60,1.10,1.30,17,2017/11/23,12:41:55
791,46.887752,7.659730,787.3,0.54,227.5,"3d",0.60,1.10,1.30,17,2017/11/23,12:41:55.5
792,46.887755,7.659735,785.8,0.21,236.0,"3d",0.60,1.10,1.30,16,2017/11/23,12:41:56
793,46.887752,7.659732,786.5,0.18,226.1,"3d",0.60,1.10,1.30,16,2017/11/23,12:41:56.5
794,46.887758,7.659732,787.8,0.11,323.3,"3d",0.60,1.10,1.30,17,2017/11/23,12:41:57
795,46.887762,7.659728,788.7,0.04,302.7,"3d",0.60,1.10,1.30,17,2017/11/23,12:41:57.5
796,46.887752,7.659727,785.4,0.12,242.6,"3d",0.60,1.20,1.40,16,2017/11/23,12:41:58
797,46.887753,7.659723,786.0,0.32,322.4,"3d",0.60,1.20,1.40,16,2017/11/23,12:41:58.5
798,46.887758,7.659715,787.3,0.18,333.0,"3d",0.60,1.20,1.40,16,2017/11/23,12:41:59
799,46.887758,7.659717,787.0,0.49,322.5,"3d",0.60,1.20,1.40,16,2017/11/23,12:41:59.5
800,46.887765,7.659710,787.9,0.47,323.5,"3d",0.60,1.20,1.40,16,2017/11/23,12:42:00
801,46.887767,7.659708,787.9,0.58,327.6,"3d",0.60,1.20,1.40,16,2017/11/23,12:42:00.5
802,46.887768,7.659707,787.1,0.60,327.9,"3d",0.60,1.20,1.40,16,2017/11/23,12:42:01
803,46.887770,7.659705,787.2,0.44,313.0,"3d",0.60,1.20,1.40,16,2017/11/23,12:42:01.5
804,46.887763,7.659715,786.6,0.43,322.7,"3d",0.70,1.20,1.40,15,2017/11/23,12:42:02
805,46.887763,7.659713,786.7,0.36,311.1,"3d",0.70,1.20,1.40,15,2017/11/23,12:42:02.5
806,46.887777,7.659700,787.9,0.31,337.9,"3d",0.60,1.20,1.40,16,2017/11/23,12:42:03
807,46.887778,7.659700,788.1,0.16,152.6,"3d",0.60,1.20,1.40,16,2017/11/23,12:42:03.5
808,46.887795,7.659695,790.8,0.17,209.7,"3d",0.60,1.10,1.30,17,2017/11/23,12:42:04
809,46.887790,7.659697,790.1,0.33,72.7,"3d",0.60,1.10,1.30,17,2017/11/23,12:42:04.5
810,46.887783,7.659700,789.0,0.41,61.2,"3d",0.60,1.10,1.30,17,2017/11/23,12:42:05
811,46.887787,7.659703,789.2,0.44,55.2,"3d",0.60,1.10,1.30,17,2017/11/23,12:42:05.5
812,46.887778,7.659703,788.5,0.54,68.2,"3d",0.60,1.10,1.30,17,2017/11/23,12:42:06
813,46.887778,7.659707,788.5,0.64,61.1,"3d",0.60,1.10,1.30,17,2017/11/23,12:42:06.5
814,46.887780,7.659715,787.7,0.56,55.8,"3d",0.60,1.10,1.30,17,2017/11/23,12:42:07
815,46.887782,7.659718,787.6,0.43,49.3,"3d",0.60,1.10,1.30,17,2017/11/23,12:42:07.5
816,46.887782,7.659715,787.3,0.38,45.2,"3d",0.60,1.10,1.30,17,2017/11/23,12:42:08
817,46.887783,7.659717,787.3,0.25,63.5,"3d",0.60,1.10,1.30,17,2017/11/23,12:42:08.5
818,46.887782,7.659717,787.2,0.28,99.1,"3d",0.60,1.10,1.30,17,2017/11/23,12:42:09
819,46.887782,7.659718,787.1,0.11,77.4,"3d",0.60,1.10,1.30,17,2017/11/23,12:42:09.5
820,46.887787,7.659722,787.4,0.42,357.4,"3d",0.60,1.10,1.30,17,2017/11/23,12:42:10
821,46.887787,7.659723,787.3,0.06,342.6,"3d",0.60,1.10,1.30,17,2017/11/23,12:42:10.5
822,46.887783,7.659717,786.1,0.11,204.6,"3d",0.60,1.10,1.30,17,2017/11/23,12:42:11
823,46.887778,7.659720,786.6,0.22,154.3,"3d",0.60,1.10,1.30,17,2017/11/23,12:42:11.5
824,46.887788,7.659725,785.8,0.30,159.4,"3d",0.70,1.10,1.30,16,2017/11/23,12:42:12
825,46.887783,7.659730,785.3,0.30,220.2,"3d",0.70,1.10,1.30,16,2017/11/23,12:42:12.5
826,46.887780,7.659728,786.3,0.05,73.0,"3d",0.60,1.10,1.30,17,2017/11/23,12:42:13
827,46.887780,7.659730,786.5,0.04,310.7,"3d",0.60,1.10,1.30,17,2017/11/23,12:42:13.5
828,46.887768,7.659735,786.8,0.29,97.2,"3d",0.60,1.10,1.30,17,2017/11/23,12:42:14
829,46.887772,7.659735,787.2,0.48,152.1,"3d",0.60,1.10,1.30,17,2017/11/23,12:42:14.5
830,46.887775,7.659733,787.1,0.45,157.6,"3d",0.60,1.10,1.30,16,2017/11/23,12:42:15
831,46.887775,7.659733,788.2,0.62,148.3,"3d",0.60,1.10,1.30,16,2017/11/23,12:42:15.5
832,46.887772,7.659740,786.7,0.56,152.5,"3d",0.60,1.10,1.30,16,2017/11/23,12:42:16
833,46.887768,7.659742,786.7,0.47,146.5,"3d",0.60,1.10,1.30,16,2017/11/23,12:42:16.5
834,46.887768,7.659742,788.0,0.41,137.3,"3d",0.60,1.10,1.30,17,2017/11/23,12:42:17
835,46.887767,7.659743,787.5,0.28,152.9,"3d",0.60,1.10,1.30,17,2017/11/23,12:42:17.5
836,46.887762,7.659742,786.7,0.15,191.8,"3d",0.60,1.10,1.30,17,2017/11/23,12:42:18
837,46.887760,7.659743,786.0,0.03,88.6,"3d",0.60,1.10,1.30,17,2017/11/23,12:42:18.5
838,46.887757,7.659742,786.2,0.29,343.8,"3d",0.60,1.10,1.30,17,2017/11/23,12:42:19
839,46.887758,7.659742,786.1,0.16,358.1,"3d",0.60,1.10,1.30,17,2017/11/23,12:42:19.5
840,46.887765,7.659748,786.7,0.15,236.4,"3d",0.60,1.10,1.30,17,2017/11/23,12:42:20
841,46.887767,7.659752,785.8,0.16,259.9,"3d",0.60,1.10,1.30,17,2017/11/23,12:42:20.5
842,46.887770,7.659757,784.2,0.44,330.2,"3d",0.60,1.20,1.40,16,2017/11/23,12:42:21
843,46.887768,7.659747,786.2,0.21,344.1,"3d",0.60,1.20,1.40,16,2017/11/23,12:42:21.5
844,46.887767,7.659748,785.4,0.33,327.0,"3d",0.60,1.20,1.40,16,2017/11/23,12:42:22
845,46.887768,7.659747,785.3,0.54,335.4,"3d",0.60,1.20,1.40,16,2017/11/23,12:42:22.5
846,46.887773,7.659742,786.2,0.54,341.8,"3d",0.60,1.20,1.40,16,2017/11/23,12:42:23
847,46.887775,7.659738,786.3,0.53,335.2,"3d",0.60,1.20,1.40,16,2017/11/23,12:42:23.5
848,46.887777,7.659735,786.8,0.50,322.1,"3d",0.60,1.20,1.40,16,2017/11/23,12:42:24
849,46.887778,7.659733,786.8,0.54,349.3,"3d",0.60,1.20,1.40,16,2017/11/23,12:42:24.5
850,46.887777,7.659733,785.6,0.34,336.4,"3d",0.60,1.10,1.30,17,2017/11/23,12:42:25
851,46.887782,7.659733,786.0,0.16,356.5,"3d",0.60,1.10,1.30,17,2017/11/23,12:42:25.5
852,46.887790,7.659728,788.1,0.18,131.7,"3d",0.60,1.10,1.30,17,2017/11/23,12:42:26
853,46.887777,7.659733,785.4,0.35,254.6,"3d",0.60,1.10,1.30,17,2017/11/23,12:42:26.5
854,46.887773,7.659735,785.5,0.08,260.4,"3d",0.60,1.10,1.30,17,2017/11/23,12:42:27
855,46.887772,7.659733,785.4,0.31,242.7,"3d",0.60,1.10,1.30,17,2017/11/23,12:42:27.5
856,46.887780,7.659732,786.0,0.11,167.1,"3d",0.60,1.10,1.30,17,2017/11/23,12:42:28
857,46.887775,7.659730,786.2,0.14,235.9,"3d",0.60,1.10,1.30,17,2017/11/23,12:42:28.5
858,46.887782,7.659730,785.9,0.40,260.4,"3d",0.60,1.10,1.30,16,2017/11/23,12:42:29
859,46.887778,7.659725,786.4,0.40,237.5,"3d",0.60,1.10,1.30,16,2017/11/23,12:42:29.5
860,46.887777,7.659720,787.1,0.30,244.9,"3d",0.60,1.10,1.30,17,2017/11/23,12:42:30
861,46.887772,7.659707,788.9,0.43,222.2,"3d",0.60,1.10,1.30,17,2017/11/23,12:42:30.5
862,46.887778,7.659717,785.7,0.59,225.4,"3d",0.60,1.10,1.30,17,2017/11/23,12:42:31
863,46.887778,7.659713,785.7,0.34,226.8,"3d",0.60,1.10,1.30,17,2017/11/23,12:42:31.5
864,46.887775,7.659705,786.5,0.38,252.2,"3d",0.60,1.10,1.30,17,2017/11/23,12:42:32
865,46.887775,7.659703,786.4,0.50,232.7,"3d",0.60,1.10,1.30,17,2017/11/23,12:42:32.5
866,46.887773,7.659705,786.4,0.29,224.4,"3d",0.60,1.10,1.30,17,2017/11/23,12:42:33
867,46.887772,7.659703,786.4,0.26,226.5,"3d",0.60,1.10,1.30,17,2017/11/23,12:42:33.5
868,46.887772,7.659705,786.6,0.07,86.2,"3d",0.60,1.20,1.40,16,2017/11/23,12:42:34
869,46.887770,7.659705,786.6,0.44,163.9,"3d",0.60,1.20,1.40,16,2017/11/23,12:42:34.5
870,46.887762,7.659708,786.7,0.21,120.4,"3d",0.60,1.20,1.40,16,2017/11/23,12:42:35
871,46.887762,7.659710,786.9,0.42,141.8,"3d",0.60,1.20,1.40,16,2017/11/23,12:42:35.5
872,46.887752,7.659708,790.2,0.51,150.2,"3d",0.70,1.30,1.50,15,2017/11/23,12:42:36
873,46.887748,7.659710,790.3,0.45,137.4,"3d",0.70,1.30,1.50,15,2017/11/23,12:42:36.5
874,46.887753,7.659708,789.0,0.45,144.7,"3d",0.70,1.30,1.50,15,2017/11/23,12:42:37
875,46.887752,7.659710,788.9,0.61,156.3,"3d",0.70,1.30,1.50,15,2017/11/23,12:42:37.5
876,46.887747,7.659712,787.4,0.39,135.2,"3d",0.70,1.30,1.50,15,2017/11/23,12:42:38
877,46.887747,7.659713,787.2,0.28,120.0,"3d",0.70,1.30,1.50,15,2017/11/23,12:42:38.5
878,46.887755,7.659717,787.7,0.20,136.2,"3d",0.70,1.30,1.50,15,2017/11/23,12:42:39
879,46.887753,7.659718,787.5,0.17,125.0,"3d",0.70,1.30,1.50,15,2017/11/23,12:42:39.5
880,46.887745,7.659723,786.8,0.12,42.9,"3d",0.60,1.20,1.40,16,2017/11/23,12:42:40
881,46.887743,7.659710,785.5,0.09,276.4,"3d",0.60,1.20,1.40,16,2017/11/23,12:42:40.5
882,46.887763,7.659680,788.2,0.32,91.6,"3d",0.60,1.20,1.40,16,2017/11/23,12:42:41
883,46.887762,7.659698,787.7,0.16,76.7,"3d",0.60,1.20,1.40,16,2017/11/23,12:42:41.5
884,46.887762,7.659720,784.4,0.36,55.5,"3d",0.60,1.20,1.40,16,2017/11/23,12:42:42
885,46.887763,7.659722,784.5,0.23,24.2,"3d",0.60,1.20,1.40,16,2017/11/23,12:42:42.5
886,46.887758,7.659708,785.9,0.19,36.0,"3d",0.60,1.20,1.40,16,2017/11/23,12:42:43
887,46.887758,7.659710,785.8,0.26,42.1,"3d",0.60,1.20,1.40,16,2017/11/23,12:42:43.5
888,46.887757,7.659715,786.3,0.42,61.7,"3d",0.60,1.20,1.40,16,2017/11/23,12:42:44
889,46.887768,7.659723,787.2,0.42,43.7,"3d",0.60,1.20,1.40,16,2017/11/23,12:42:44.5
890,46.887770,7.659728,787.3,0.42,30.2,"3d",0.60,1.20,1.40,16,2017/11/23,12:42:45
891,46.887772,7.659728,787.2,0.31,48.1,"3d",0.60,1.20,1.40,16,2017/11/23,12:42:45.5
892,46.887772,7.659732,786.5,0.27,46.0,"3d",0.60,1.20,1.40,16,2017/11/23,12:42:46
893,46.887772,7.659733,786.4,0.32,56.9,"3d",0.60,1.20,1.40,16,2017/11/23,12:42:46.5
894,46.887767,7.659733,787.1,0.37,293.1,"3d",0.60,1.20,1.40,16,2017/11/23,12:42:47
895,46.887770,7.659733,787.3,0.95,336.6,"3d",0.60,1.20,1.40,16,2017/11/23,12:42:47.5
896,46.887787,7.659740,785.9,0.42,294.7,"3d",0.60,1.20,1.40,16,2017/11/23,12:42:48
897,46.887787,7.659740,785.9,0.38,309.3,"3d",0.60,1.20,1.40,16,2017/11/23,12:42:48.5
898,46.887787,7.659732,788.0,0.41,324.0,"3d",0.60,1.20,1.40,16,2017/11/23,12:42:49
899,46.887785,7.659732,787.6,0.41,328.6,"3d",0.60,1.20,1.40,16,2017/11/23,12:42:49.5
900,46.887785,7.659728,786.0,0.64,324.2,"3d",0.60,1.20,1.40,16,2017/11/23,12:42:50
901,46.887783,7.659732,785.4,0.58,330.8,"3d",0.60,1.20,1.40,16,2017/11/23,12:42:50.5
902,46.887778,7.659728,787.1,0.33,316.1,"3d",0.60,1.20,1.40,16,2017/11/23,12:42:51
903,46.887780,7.659727,787.2,0.26,311.6,"3d",0.60,1.20,1.40,16,2017/11/23,12:42:51.5
904,46.887788,7.659728,786.8,0.04,305.1,"3d",0.60,1.20,1.40,16,2017/11/23,12:42:52
905,46.887788,7.659725,787.0,0.02,210.8,"3d",0.60,1.20,1.40,16,2017/11/23,12:42:52.5
906,46.887790,7.659722,787.8,0.05,308.0,"3d",0.70,1.30,1.50,15,2017/11/23,12:42:53
907,46.887788,7.659720,788.0,0.27,236.1,"3d",0.70,1.30,1.50,15,2017/11/23,12:42:53.5
908,46.887785,7.659720,787.0,0.42,218.7,"3d",0.70,1.30,1.50,15,2017/11/23,12:42:54
909,46.887785,7.659718,787.0,0.43,263.2,"3d",0.70,1.30,1.50,15,2017/11/23,12:42:54.5
910,46.887785,7.659718,787.2,0.54,234.7,"3d",0.60,1.20,1.40,16,2017/11/23,12:42:55
911,46.887782,7.659713,788.0,0.44,243.4,"3d",0.60,1.20,1.40,16,2017/11/23,12:42:55.5
912,46.887777,7.659703,789.9,0.37,247.9,"3d",0.60,1.20,1.40,16,2017/11/23,12:42:56
913,46.887775,7.659700,790.1,0.52,228.5,"3d",0.60,1.20,1.40,16,2017/11/23,12:42:56.5
914,46.887778,7.659698,789.5,0.41,243.1,"3d",0.60,1.20,1.40,16,2017/11/23,12:42:57
915,46.887777,7.659695,789.5,0.31,204.3,"3d",0.60,1.20,1.40,16,2017/11/23,12:42:57.5
916,46.887770,7.659693,788.7,0.27,184.4,"3d",0.60,1.20,1.40,16,2017/11/23,12:42:58
917,46.887767,7.659693,789.3,0.16,303.2,"3d",0.60,1.20,1.40,16,2017/11/23,12:42:58.5
918,46.887758,7.659692,792.3,0.90,136.9,"3d",0.60,1.20,1.40,16,2017/11/23,12:42:59
919,46.887760,7.659695,791.5,0.40,139.4,"3d",0.60,1.20,1.40,16,2017/11/23,12:42:59.5
920,46.887762,7.659708,788.2,0.27,153.9,"3d",0.70,1.30,1.40,15,2017/11/23,12:43:00
921,46.887762,7.659710,787.9,0.59,132.2,"3d",0.70,1.30,1.40,15,2017/11/23,12:43:00.5
922,46.887762,7.659713,787.7,0.52,146.1,"3d",0.70,1.30,1.40,15,2017/11/23,12:43:01
923,46.887758,7.659717,787.6,0.67,160.3,"3d",0.70,1.30,1.40,15,2017/11/23,12:43:01.5
924,46.887758,7.659717,787.7,0.54,136.4,"3d",0.60,1.20,1.40,16,2017/11/23,12:43:02
925,46.887757,7.659718,787.5,0.29,74.4,"3d",0.60,1.20,1.40,16,2017/11/23,12:43:02.5
926,46.887760,7.659715,786.9,0.28,118.6,"3d",0.60,1.20,1.40,16,2017/11/23,12:43:03
927,46.887758,7.659715,786.7,0.20,81.0,"3d",0.60,1.20,1.40,16,2017/11/23,12:43:03.5
928,46.887757,7.659715,786.7,0.02,104.3,"3d",0.60,1.20,1.40,16,2017/11/23,12:43:04
929,46.887758,7.659713,786.5,0.04,213.7,"3d",0.60,1.20,1.40,16,2017/11/23,12:43:04.5
930,46.887757,7.659717,786.6,0.10,339.8,"3d",0.60,1.20,1.40,16,2017/11/23,12:43:05
931,46.887758,7.659715,786.5,0.01,338.3,"3d",0.60,1.20,1.40,16,2017/11/23,12:43:05.5
932,46.887757,7.659717,786.8,0.04,274.9,"3d",0.60,1.20,1.40,16,2017/11/23,12:43:06
933,46.887757,7.659717,786.8,0.02,291.9,"3d",0.60,1.20,1.40,16,2017/11/23,12:43:06.5
934,46.887758,7.659718,786.7,0.01,302.6,"3d",0.60,1.20,1.40,16,2017/11/23,12:43:07
935,46.887758,7.659718,786.7,0.02,9.6,"3d",0.60,1.20,1.40,16,2017/11/23,12:43:07.5
936,46.887758,7.659717,786.7,0.01,343.6,"3d",0.60,1.20,1.40,16,2017/11/23,12:43:08
937,46.887758,7.659717,786.7,0.00,328.2,"3d",0.60,1.20,1.40,16,2017/11/23,12:43:08.5
938,46.887762,7.659718,786.8,0.01,165.6,"3d",0.60,1.20,1.40,16,2017/11/23,12:43:09
939,46.887762,7.659720,786.8,0.01,153.9,"3d",0.60,1.20,1.40,16,2017/11/23,12:43:09.5
940,46.887762,7.659718,786.9,0.00,72.0,"3d",0.60,,,16,2017/11/23,12:43:10
