No,Latitude,Longitude,Altitude,Speed,Course,FIX,HDOP,VDOP,PDOP,Satellites,Date,Time
1,46.887755,7.659723,787.8,0.02,181.1,"3d",0.60,1.00,1.10,18,2017/11/23,13:15:45
2,46.887755,7.659723,787.7,0.01,343.0,"3d",0.60,1.00,1.10,18,2017/11/23,13:15:45.5
3,46.887758,7.659722,787.5,0.01,43.5,"3d",0.60,1.00,1.10,18,2017/11/23,13:15:46
4,46.887758,7.659722,787.5,0.01,168.2,"3d",0.60,1.00,1.10,18,2017/11/23,13:15:46.5
5,46.887760,7.659722,787.6,0.02,202.2,"3d",0.60,1.00,1.10,18,2017/11/23,13:15:47
6,46.887760,7.659722,787.6,0.01,138.3,"3d",0.60,1.00,1.10,18,2017/11/23,13:15:47.5
7,46.887753,7.659723,788.0,0.01,224.8,"3d",0.60,1.00,1.10,18,2017/11/23,13:15:48
8,46.887753,7.659723,788.0,0.00,92.6,"3d",0.60,1.00,1.10,18,2017/11/23,13:15:48.5
9,46.887757,7.659722,787.5,0.01,291.4,"3d",0.60,1.00,1.10,18,2017/11/23,13:15:49
10,46.887757,7.659722,787.5,0.01,184.3,"3d",0.60,1.00,1.10,18,2017/11/23,13:15:49.5
11,46.887758,7.659720,787.4,0.01,151.2,"3d",0.60,1.00,1.10,18,2017/11/23,13:15:50
12,46.887758,7.659720,787.4,0.00,356.4,"3d",0.60,1.00,1.10,18,2017/11/23,13:15:50.5
13,46.887757,7.659722,787.8,0.01,121.3,"3d",0.60,1.00,1.10,18,2017/11/23,13:15:51
14,46.887757,7.659722,787.8,0.00,356.4,"3d",0.60,1.00,1.10,18,2017/11/23,13:15:51.5
15,46.887758,7.659723,787.7,0.00,115.9,"3d",0.60,1.00,1.10,18,2017/11/23,13:15:52
16,46.887758,7.659723,787.7,0.02,354.6,"3d",0.60,1.00,1.10,18,2017/11/23,13:15:52.5
17,46.887760,7.659723,787.3,0.01,290.2,"3d",0.60,1.00,1.10,18,2017/11/23,13:15:53
18,46.887760,7.659723,787.3,0.01,9.0,"3d",0.60,1.00,1.10,18,2017/11/23,13:15:53.5
19,46.887758,7.659720,787.4,0.01,150.3,"3d",0.60,1.00,1.10,18,2017/11/23,13:15:54
20,46.887758,7.659720,787.4,0.01,341.7,"3d",0.60,1.00,1.10,18,2017/11/23,13:15:54.5
21,46.887753,7.659720,787.8,0.01,171.6,"3d",0.60,1.00,1.10,18,2017/11/23,13:15:55
22,46.887753,7.659720,787.8,0.01,36.2,"3d",0.60,1.00,1.10,18,2017/11/23,13:15:55.5
23,46.887758,7.659722,787.8,0.01,85.3,"3d",0.60,1.00,1.10,18,2017/11/23,13:15:56
24,46.887758,7.659722,787.8,0.01,299.2,"3d",0.60,1.00,1.10,18,2017/11/23,13:15:56.5
25,46.887758,7.659718,787.1,0.00,103.0,"3d",0.60,1.00,1.10,18,2017/11/23,13:15:57
26,46.887758,7.659718,787.1,0.01,26.1,"3d",0.60,1.00,1.10,18,2017/11/23,13:15:57.5
27,46.887758,7.659718,787.2,0.01,158.8,"3d",0.60,1.00,1.10,18,2017/11/23,13:15:58
28,46.887758,7.659718,787.2,0.01,42.0,"3d",0.60,1.00,1.10,18,2017/11/23,13:15:58.5
29,46.887758,7.659720,786.9,0.01,182.6,"3d",0.60,1.00,1.10,18,2017/11/23,13:15:59
30,46.887758,7.659720,786.9,0.01,101.9,"3d",0.60,1.00,1.10,18,2017/11/23,13:15:59.5
31,46.887757,7.659720,787.2,0.01,164.1,"3d",0.60,1.00,1.10,18,2017/11/23,13:16:00
32,46.887757,7.659720,787.2,0.00,114.7,"3d",0.60,1.00,1.10,18,2017/11/23,13:16:00.5
33,46.887757,7.659722,788.2,0.01,125.5,"3d",0.60,1.00,1.10,18,2017/11/23,13:16:01
34,46.887757,7.659722,788.2,0.02,156.5,"3d",0.60,1.00,1.10,18,2017/11/23,13:16:01.5
35,46.887757,7.659722,788.5,0.02,176.5,"3d",0.60,1.00,1.10,18,2017/11/23,13:16:02
36,46.887757,7.659722,788.5,0.00,306.8,"3d",0.60,1.00,1.10,18,2017/11/23,13:16:02.5
37,46.887758,7.659718,787.5,0.01,219.6,"3d",0.60,1.00,1.10,18,2017/11/23,13:16:03
38,46.887758,7.659718,787.4,0.00,264.2,"3d",0.60,1.00,1.10,18,2017/11/23,13:16:03.5
39,46.887758,7.659718,786.8,0.00,72.0,"3d",0.60,1.00,1.10,18,2017/11/23,13:16:04
40,46.887758,7.659718,786.8,0.00,35.6,"3d",0.60,1.00,1.10,18,2017/11/23,13:16:04.5
41,46.887757,7.659720,787.2,0.00,318.0,"3d",0.60,1.00,1.10,18,2017/11/23,13:16:05
42,46.887757,7.659720,787.2,0.01,354.5,"3d",0.60,1.00,1.10,18,2017/11/23,13:16:05.5
43,46.887757,7.659720,787.3,0.01,358.5,"3d",0.60,1.00,1.10,18,2017/11/23,13:16:06
44,46.887757,7.659720,787.3,0.00,326.5,"3d",0.60,1.00,1.10,18,2017/11/23,13:16:06.5
45,46.887757,7.659718,787.4,0.00,218.0,"3d",0.60,1.00,1.10,18,2017/11/23,13:16:07
46,46.887757,7.659720,787.4,0.01,255.1,"3d",0.60,1.00,1.10,18,2017/11/23,13:16:07.5
47,46.887755,7.659722,788.1,0.01,188.8,"3d",0.60,1.00,1.10,18,2017/11/23,13:16:08
48,46.887755,7.659722,788.2,0.01,270.1,"3d",0.60,1.00,1.10,18,2017/11/23,13:16:08.5
49,46.887755,7.659718,787.7,0.01,239.2,"3d",0.60,1.00,1.10,18,2017/11/23,13:16:09
50,46.887755,7.659718,787.7,0.00,4.9,"3d",0.60,1.00,1.10,18,2017/11/23,13:16:09.5
51,46.887758,7.659720,787.2,0.00,135.6,"3d",0.60,1.00,1.10,18,2017/11/23,13:16:10
52,46.887758,7.659720,787.2,0.00,152.7,"3d",0.60,1.00,1.10,18,2017/11/23,13:16:10.5
53,46.887757,7.659720,787.5,0.01,173.0,"3d",0.60,1.00,1.10,18,2017/11/23,13:16:11
54,46.887757,7.659722,787.5,0.00,160.7,"3d",0.60,1.00,1.10,18,2017/11/23,13:16:11.5
55,46.887755,7.659722,788.4,0.01,188.6,"3d",0.60,1.00,1.10,18,2017/11/23,13:16:12
56,46.887755,7.659722,788.4,0.00,25.5,"3d",0.60,1.00,1.10,18,2017/11/23,13:16:12.5
57,46.887758,7.659722,788.1,0.01,324.3,"3d",0.60,1.00,1.10,18,2017/11/23,13:16:13
58,46.887758,7.659722,788.1,0.00,251.4,"3d",0.60,1.00,1.10,18,2017/11/23,13:16:13.5
59,46.887758,7.659722,787.6,0.01,337.3,"3d",0.60,1.00,1.10,18,2017/11/23,13:16:14
60,46.887758,7.659722,787.6,0.00,192.8,"3d",0.60,1.00,1.10,18,2017/11/23,13:16:14.5
61,46.887757,7.659722,787.7,0.00,348.0,"3d",0.60,1.00,1.10,18,2017/11/23,13:16:15
62,46.887757,7.659722,787.7,0.00,282.8,"3d",0.60,1.00,1.10,18,2017/11/23,13:16:15.5
63,46.887757,7.659725,787.5,0.00,155.0,"3d",0.60,1.00,1.10,18,2017/11/23,13:16:16
64,46.887757,7.659723,787.6,0.01,359.4,"3d",0.60,1.00,1.10,18,2017/11/23,13:16:16.5
65,46.887757,7.659725,787.3,0.00,85.9,"3d",0.60,1.00,1.10,18,2017/11/23,13:16:17
66,46.887757,7.659725,787.3,0.00,64.6,"3d",0.60,1.00,1.10,18,2017/11/23,13:16:17.5
67,46.887755,7.659720,787.7,0.01,285.0,"3d",0.60,1.00,1.10,18,2017/11/23,13:16:18
68,46.887755,7.659720,787.7,0.00,316.8,"3d",0.60,1.00,1.10,18,2017/11/23,13:16:18.5
69,46.887758,7.659720,787.2,0.01,209.4,"3d",0.60,1.00,1.10,18,2017/11/23,13:16:19
70,46.887758,7.659720,787.2,0.01,329.7,"3d",0.60,1.00,1.10,18,2017/11/23,13:16:19.5
71,46.887758,7.659722,787.3,0.01,17.9,"3d",0.60,1.00,1.10,18,2017/11/23,13:16:20
72,46.887758,7.659722,787.3,0.01,154.0,"3d",0.60,1.00,1.10,18,2017/11/23,13:16:20.5
73,46.887758,7.659720,786.9,0.01,25.0,"3d",0.60,1.00,1.10,18,2017/11/23,13:16:21
74,46.887758,7.659720,786.9,0.00,245.6,"3d",0.60,1.00,1.10,18,2017/11/23,13:16:21.5
75,46.887757,7.659720,787.6,0.01,34.1,"3d",0.60,1.00,1.10,18,2017/11/23,13:16:22
76,46.887757,7.659720,787.6,0.01,49.1,"3d",0.60,1.00,1.10,18,2017/11/23,13:16:22.5
77,46.887755,7.659720,788.1,0.00,155.5,"3d",0.60,1.00,1.10,18,2017/11/23,13:16:23
78,46.887755,7.659720,788.1,0.00,216.2,"3d",0.60,1.00,1.10,18,2017/11/23,13:16:23.5
79,46.887758,7.659723,787.7,0.00,90.6,"3d",0.60,1.00,1.10,18,2017/11/23,13:16:24
80,46.887758,7.659723,787.7,0.00,115.0,"3d",0.60,1.00,1.10,18,2017/11/23,13:16:24.5
81,46.887758,7.659722,788.0,0.01,217.2,"3d",0.60,1.00,1.10,18,2017/11/23,13:16:25
82,46.887758,7.659722,788.0,0.01,188.8,"3d",0.60,1.00,1.10,18,2017/11/23,13:16:25.5
83,46.887757,7.659720,787.7,0.01,201.4,"3d",0.60,1.00,1.10,18,2017/11/23,13:16:26
84,46.887757,7.659720,787.7,0.01,206.9,"3d",0.60,1.00,1.10,18,2017/11/23,13:16:26.5
85,46.887757,7.659720,787.6,0.00,13.4,"3d",0.60,1.00,1.10,18,2017/11/23,13:16:27
86,46.887757,7.659720,787.6,0.00,80.7,"3d",0.60,1.00,1.10,18,2017/11/23,13:16:27.5
87,46.887760,7.659720,787.0,0.00,34.9,"3d",0.60,1.00,1.10,18,2017/11/23,13:16:28
88,46.887760,7.659720,787.0,0.00,192.5,"3d",0.60,1.00,1.10,18,2017/11/23,13:16:28.5
89,46.887757,7.659720,787.1,0.01,151.6,"3d",0.60,1.00,1.10,18,2017/11/23,13:16:29
90,46.887757,7.659720,787.1,0.00,45.8,"3d",0.60,1.00,1.10,18,2017/11/23,13:16:29.5
91,46.887757,7.659720,787.2,0.01,352.9,"3d",0.60,1.00,1.10,18,2017/11/23,13:16:30
92,46.887757,7.659720,787.2,0.01,343.2,"3d",0.60,1.00,1.10,18,2017/11/23,13:16:30.5
93,46.887760,7.659720,787.5,0.00,288.1,"3d",0.60,1.00,1.10,18,2017/11/23,13:16:31
94,46.887760,7.659720,787.5,0.01,187.9,"3d",0.60,1.00,1.10,18,2017/11/23,13:16:31.5
95,46.887755,7.659720,788.0,0.00,97.5,"3d",0.60,1.00,1.10,18,2017/11/23,13:16:32
96,46.887755,7.659720,788.0,0.00,253.5,"3d",0.60,1.00,1.10,18,2017/11/23,13:16:32.5
97,46.887753,7.659722,787.8,0.01,170.0,"3d",0.60,1.00,1.10,18,2017/11/23,13:16:33
98,46.887753,7.659722,787.7,0.01,179.1,"3d",0.60,1.00,1.10,18,2017/11/23,13:16:33.5
99,46.887753,7.659720,787.5,0.01,339.2,"3d",0.60,1.00,1.10,18,2017/11/23,13:16:34
100,46.887753,7.659720,787.5,0.00,307.5,"3d",0.60,1.00,1.10,18,2017/11/23,13:16:34.5
101,46.887757,7.659720,787.1,0.01,37.1,"3d",0.60,1.00,1.10,18,2017/11/23,13:16:35
102,46.887757,7.659720,787.1,0.00,90.7,"3d",0.60,1.00,1.10,18,2017/11/23,13:16:35.5
103,46.887755,7.659720,787.4,0.00,178.5,"3d",0.60,1.00,1.10,18,2017/11/23,13:16:36
104,46.887755,7.659720,787.4,0.01,23.9,"3d",0.60,1.00,1.10,18,2017/11/23,13:16:36.5
105,46.887757,7.659720,787.1,0.01,7.4,"3d",0.60,1.00,1.10,18,2017/11/23,13:16:37
106,46.887757,7.659720,787.1,0.01,171.3,"3d",0.60,1.00,1.10,18,2017/11/23,13:16:37.5
107,46.887757,7.659722,787.4,0.00,327.3,"3d",0.60,1.00,1.10,18,2017/11/23,13:16:38
108,46.887757,7.659722,787.4,0.01,342.1,"3d",0.60,1.00,1.10,18,2017/11/23,13:16:38.5
109,46.887757,7.659722,787.5,0.00,173.2,"3d",0.60,1.00,1.10,18,2017/11/23,13:16:39
110,46.887757,7.659722,787.5,0.00,34.1,"3d",0.60,1.00,1.10,18,2017/11/23,13:16:39.5
111,46.887757,7.659718,787.4,0.00,157.4,"3d",0.60,1.00,1.10,18,2017/11/23,13:16:40
112,46.887757,7.659720,787.4,0.00,134.9,"3d",0.60,1.00,1.10,18,2017/11/23,13:16:40.5
113,46.887758,7.659720,787.4,0.00,244.9,"3d",0.60,1.00,1.10,18,2017/11/23,13:16:41
114,46.887758,7.659720,787.5,0.01,325.3,"3d",0.60,1.00,1.10,18,2017/11/23,13:16:41.5
115,46.887758,7.659720,787.3,0.00,55.4,"3d",0.60,1.00,1.10,18,2017/11/23,13:16:42
116,46.887758,7.659720,787.3,0.00,219.3,"3d",0.60,1.00,1.10,18,2017/11/23,13:16:42.5
117,46.887757,7.659720,787.6,0.01,145.5,"3d",0.60,1.00,1.10,18,2017/11/23,13:16:43
118,46.887757,7.659720,787.6,0.02,145.3,"3d",0.60,1.00,1.10,18,2017/11/23,13:16:43.5
119,46.887755,7.659722,787.6,0.00,346.7,"3d",0.60,1.00,1.10,18,2017/11/23,13:16:44
120,46.887755,7.659722,787.6,0.01,133.0,"3d",0.60,1.00,1.10,18,2017/11/23,13:16:44.5
121,46.887757,7.659722,787.4,0.01,330.6,"3d",0.60,1.00,1.10,18,2017/11/23,13:16:45
122,46.887757,7.659722,787.4,0.02,313.8,"3d",0.60,1.00,1.10,18,2017/11/23,13:16:45.5
123,46.887755,7.659718,787.2,0.00,26.6,"3d",0.60,1.00,1.10,18,2017/11/23,13:16:46
124,46.887755,7.659718,787.2,0.02,174.6,"3d",0.60,1.00,1.10,18,2017/11/23,13:16:46.5
125,46.887758,7.659720,787.1,0.01,193.0,"3d",0.60,1.00,1.10,18,2017/11/23,13:16:47
126,46.887758,7.659720,787.1,0.02,324.7,"3d",0.60,1.00,1.10,18,2017/11/23,13:16:47.5
127,46.887757,7.659720,787.7,0.01,141.6,"3d",0.60,1.00,1.10,18,2017/11/23,13:16:48
128,46.887757,7.659720,787.6,0.02,315.6,"3d",0.60,1.00,1.10,18,2017/11/23,13:16:48.5
129,46.887758,7.659720,787.2,0.01,340.7,"3d",0.60,1.00,1.10,18,2017/11/23,13:16:49
130,46.887758,7.659720,787.2,0.02,240.2,"3d",0.60,1.00,1.10,18,2017/11/23,13:16:49.5
131,46.887755,7.659718,787.4,0.02,21.9,"3d",0.60,1.00,1.10,18,2017/11/23,13:16:50
132,46.887755,7.659718,787.3,0.01,71.2,"3d",0.60,1.00,1.10,18,2017/11/23,13:16:50.5
133,46.887755,7.659718,787.1,0.01,336.1,"3d",0.60,1.00,1.10,18,2017/11/23,13:16:51
134,46.887755,7.659718,787.1,0.00,246.2,"3d",0.60,1.00,1.10,18,2017/11/23,13:16:51.5
135,46.887757,7.659720,786.9,0.01,330.2,"3d",0.60,1.00,1.10,18,2017/11/23,13:16:52
136,46.887757,7.659720,786.9,0.01,175.1,"3d",0.60,1.00,1.10,18,2017/11/23,13:16:52.5
137,46.887753,7.659718,787.7,0.01,187.7,"3d",0.60,1.00,1.10,18,2017/11/23,13:16:53
138,46.887753,7.659718,787.7,0.01,144.3,"3d",0.60,1.00,1.10,18,2017/11/23,13:16:53.5
139,46.887753,7.659722,787.3,0.00,166.7,"3d",0.60,1.00,1.10,18,2017/11/23,13:16:54
140,46.887753,7.659722,787.3,0.02,47.2,"3d",0.60,1.00,1.10,18,2017/11/23,13:16:54.5
141,46.887753,7.659718,787.0,0.02,162.3,"3d",0.60,1.00,1.10,18,2017/11/23,13:16:55
142,46.887753,7.659718,787.1,0.03,137.2,"3d",0.60,1.00,1.10,18,2017/11/23,13:16:55.5
143,46.887753,7.659723,787.8,0.04,97.5,"3d",0.60,1.00,1.10,18,2017/11/23,13:16:56
144,46.887753,7.659723,787.8,0.03,94.3,"3d",0.60,1.00,1.10,18,2017/11/23,13:16:56.5
145,46.887757,7.659722,787.6,0.00,305.8,"3d",0.60,1.00,1.10,18,2017/11/23,13:16:57
146,46.887757,7.659722,787.6,0.01,333.9,"3d",0.60,1.00,1.10,18,2017/11/23,13:16:57.5
147,46.887755,7.659718,787.4,0.01,140.7,"3d",0.60,1.00,1.10,18,2017/11/23,13:16:58
148,46.887755,7.659718,787.4,0.01,53.2,"3d",0.60,1.00,1.10,18,2017/11/23,13:16:58.5
149,46.887755,7.659720,787.8,0.01,195.9,"3d",0.60,1.00,1.10,18,2017/11/23,13:16:59
150,46.887755,7.659720,787.8,0.01,238.2,"3d",0.60,1.00,1.10,18,2017/11/23,13:16:59.5
151,46.887757,7.659722,787.6,0.01,303.0,"3d",0.60,1.00,1.10,18,2017/11/23,13:17:00
152,46.887757,7.659722,787.6,0.01,129.3,"3d",0.60,1.00,1.10,18,2017/11/23,13:17:00.5
153,46.887755,7.659720,787.3,0.00,135.4,"3d",0.60,1.00,1.10,18,2017/11/23,13:17:01
154,46.887755,7.659720,787.3,0.01,196.4,"3d",0.60,1.00,1.10,18,2017/11/23,13:17:01.5
155,46.887753,7.659722,787.4,0.01,36.9,"3d",0.60,1.00,1.10,18,2017/11/23,13:17:02
156,46.887753,7.659722,787.4,0.00,156.1,"3d",0.60,1.00,1.10,18,2017/11/23,13:17:02.5
157,46.887755,7.659718,787.4,0.02,9.3,"3d",0.60,1.00,1.10,18,2017/11/23,13:17:03
158,46.887755,7.659718,787.4,0.01,111.6,"3d",0.60,1.00,1.10,18,2017/11/23,13:17:03.5
159,46.887757,7.659720,787.2,0.01,248.2,"3d",0.60,1.00,1.10,18,2017/11/23,13:17:04
160,46.887757,7.659718,787.2,0.00,227.2,"3d",0.60,1.00,1.10,18,2017/11/23,13:17:04.5
161,46.887755,7.659718,787.5,0.01,265.4,"3d",0.60,1.00,1.10,18,2017/11/23,13:17:05
162,46.887755,7.659718,787.5,0.01,178.5,"3d",0.60,1.00,1.10,18,2017/11/23,13:17:05.5
163,46.887757,7.659718,787.2,0.01,234.4,"3d",0.60,1.00,1.10,18,2017/11/23,13:17:06
164,46.887757,7.659718,787.2,0.01,133.1,"3d",0.60,1.00,1.10,18,2017/11/23,13:17:06.5
165,46.887757,7.659720,787.8,0.01,73.6,"3d",0.60,1.00,1.10,18,2017/11/23,13:17:07
166,46.887757,7.659720,787.8,0.01,15.2,"3d",0.60,1.00,1.10,18,2017/11/23,13:17:07.5
167,46.887755,7.659720,788.0,0.02,179.1,"3d",0.60,1.00,1.10,18,2017/11/23,13:17:08
168,46.887755,7.659720,788.0,0.01,212.2,"3d",0.60,1.00,1.10,18,2017/11/23,13:17:08.5
169,46.887755,7.659718,787.5,0.01,143.0,"3d",0.60,1.00,1.10,18,2017/11/23,13:17:09
170,46.887755,7.659718,787.5,0.01,343.2,"3d",0.60,1.00,1.10,18,2017/11/23,13:17:09.5
171,46.887758,7.659718,787.0,0.00,329.8,"3d",0.60,1.00,1.10,18,2017/11/23,13:17:10
172,46.887758,7.659718,787.0,0.02,355.2,"3d",0.60,1.00,1.10,18,2017/11/23,13:17:10.5
173,46.887758,7.659722,787.5,0.01,197.2,"3d",0.60,1.00,1.10,18,2017/11/23,13:17:11
174,46.887758,7.659722,787.5,0.00,132.6,"3d",0.60,1.00,1.10,18,2017/11/23,13:17:11.5
175,46.887757,7.659720,787.6,0.02,183.0,"3d",0.60,1.00,1.10,18,2017/11/23,13:17:12
176,46.887757,7.659720,787.5,0.00,355.8,"3d",0.60,1.00,1.10,18,2017/11/23,13:17:12.5
177,46.887758,7.659720,787.4,0.00,78.2,"3d",0.60,1.00,1.10,18,2017/11/23,13:17:13
178,46.887758,7.659720,787.4,0.01,257.7,"3d",0.60,1.00,1.10,18,2017/11/23,13:17:13.5
179,46.887760,7.659722,787.1,0.01,157.1,"3d",0.60,1.00,1.10,18,2017/11/23,13:17:14
180,46.887760,7.659722,787.1,0.01,226.3,"3d",0.60,1.00,1.10,18,2017/11/23,13:17:14.5
181,46.887757,7.659718,787.4,0.01,196.3,"3d",0.60,1.00,1.10,18,2017/11/23,13:17:15
182,46.887757,7.659718,787.4,0.00,319.3,"3d",0.60,1.00,1.10,18,2017/11/23,13:17:15.5
183,46.887758,7.659720,787.9,0.00,329.2,"3d",0.60,1.00,1.10,18,2017/11/23,13:17:16
184,46.887758,7.659720,787.9,0.02,353.9,"3d",0.60,1.00,1.10,18,2017/11/23,13:17:16.5
185,46.887757,7.659722,787.9,0.00,116.6,"3d",0.60,1.00,1.10,18,2017/11/23,13:17:17
186,46.887757,7.659722,787.9,0.01,319.0,"3d",0.60,1.00,1.10,18,2017/11/23,13:17:17.5
187,46.887757,7.659720,787.7,0.00,310.6,"3d",0.60,1.00,1.10,18,2017/11/23,13:17:18
188,46.887757,7.659720,787.6,0.01,167.0,"3d",0.60,1.00,1.10,18,2017/11/23,13:17:18.5
189,46.887757,7.659722,787.5,0.00,267.9,"3d",0.60,1.00,1.10,18,2017/11/23,13:17:19
190,46.887757,7.659722,787.6,0.00,228.2,"3d",0.60,1.00,1.10,18,2017/11/23,13:17:19.5
191,46.887757,7.659722,787.6,0.00,338.6,"3d",0.60,1.00,1.10,18,2017/11/23,13:17:20
192,46.887757,7.659720,787.6,0.00,166.1,"3d",0.60,1.00,1.10,18,2017/11/23,13:17:20.5
193,46.887755,7.659722,787.7,0.01,172.3,"3d",0.60,1.00,1.10,18,2017/11/23,13:17:21
194,46.887755,7.659722,787.7,0.01,119.6,"3d",0.60,1.00,1.10,18,2017/11/23,13:17:21.5
195,46.887758,7.659720,787.3,0.00,198.0,"3d",0.60,1.00,1.10,18,2017/11/23,13:17:22
196,46.887757,7.659720,787.3,0.01,96.7,"3d",0.60,1.00,1.10,18,2017/11/23,13:17:22.5
197,46.887755,7.659720,787.9,0.01,190.4,"3d",0.60,1.00,1.10,18,2017/11/23,13:17:23
198,46.887755,7.659720,787.9,0.00,298.1,"3d",0.60,1.00,1.10,18,2017/11/23,13:17:23.5
199,46.887757,7.659720,787.5,0.01,171.3,"3d",0.60,1.00,1.10,18,2017/11/23,13:17:24
200,46.887757,7.659720,787.5,0.00,157.2,"3d",0.60,1.00,1.10,18,2017/11/23,13:17:24.5
201,46.887755,7.659718,787.1,0.00,170.3,"3d",0.60,1.00,1.10,18,2017/11/23,13:17:25
202,46.887755,7.659718,787.2,0.00,309.7,"3d",0.60,1.00,1.10,18,2017/11/23,13:17:25.5
203,46.887755,7.659717,787.2,0.01,211.2,"3d",0.60,1.00,1.10,18,2017/11/23,13:17:26
204,46.887755,7.659717,787.2,0.00,11.2,"3d",0.60,1.00,1.10,18,2017/11/23,13:17:26.5
205,46.887755,7.659720,787.2,0.00,326.5,"3d",0.60,1.00,1.10,18,2017/11/23,13:17:27
206,46.887755,7.659720,787.2,0.01,187.3,"3d",0.60,1.00,1.10,18,2017/11/23,13:17:27.5
207,46.887755,7.659720,787.6,0.00,173.3,"3d",0.60,1.00,1.10,18,2017/11/23,13:17:28
208,46.887755,7.659720,787.6,0.00,34.9,"3d",0.60,1.00,1.10,18,2017/11/23,13:17:28.5
209,46.887753,7.659717,787.2,0.01,6.0,"3d",0.60,1.00,1.10,18,2017/11/23,13:17:29
210,46.887755,7.659717,787.2,0.01,11.4,"3d",0.60,1.00,1.10,18,2017/11/23,13:17:29.5
211,46.887755,7.659717,787.0,0.00,141.0,"3d",0.60,1.00,1.10,18,2017/11/23,13:17:30
212,46.887755,7.659717,787.0,0.00,137.7,"3d",0.60,1.00,1.10,18,2017/11/23,13:17:30.5
213,46.887755,7.659722,787.7,0.01,184.5,"3d",0.60,1.00,1.10,18,2017/11/23,13:17:31
214,46.887755,7.659722,787.7,0.00,194.7,"3d",0.60,1.00,1.10,18,2017/11/23,13:17:31.5
215,46.887753,7.659718,787.7,0.00,43.1,"3d",0.60,1.00,1.10,18,2017/11/23,13:17:32
216,46.887753,7.659718,787.7,0.00,208.2,"3d",0.60,1.00,1.10,18,2017/11/23,13:17:32.5
217,46.887757,7.659720,787.5,0.01,199.7,"3d",0.60,1.00,1.10,18,2017/11/23,13:17:33
218,46.887757,7.659720,787.4,0.01,163.5,"3d",0.60,1.00,1.10,18,2017/11/23,13:17:33.5
219,46.887753,7.659723,787.4,0.00,202.6,"3d",0.60,1.00,1.10,18,2017/11/23,13:17:34
220,46.887753,7.659723,787.4,0.01,165.7,"3d",0.60,1.00,1.10,18,2017/11/23,13:17:34.5
221,46.887753,7.659723,787.5,0.00,205.3,"3d",0.60,1.00,1.10,18,2017/11/23,13:17:35
222,46.887753,7.659723,787.5,0.00,52.0,"3d",0.60,1.00,1.10,18,2017/11/23,13:17:35.5
223,46.887752,7.659722,787.5,0.01,205.5,"3d",0.60,1.00,1.10,18,2017/11/23,13:17:36
224,46.887752,7.659722,787.5,0.01,9.4,"3d",0.60,1.00,1.10,18,2017/11/23,13:17:36.5
225,46.887753,7.659722,787.2,0.01,44.9,"3d",0.60,1.00,1.10,18,2017/11/23,13:17:37
226,46.887753,7.659722,787.2,0.00,206.4,"3d",0.60,1.00,1.10,18,2017/11/23,13:17:37.5
227,46.887752,7.659722,787.5,0.01,341.4,"3d",0.60,1.00,1.10,18,2017/11/23,13:17:38
228,46.887752,7.659722,787.5,0.01,19.8,"3d",0.60,1.00,1.10,18,2017/11/23,13:17:38.5
229,46.887753,7.659722,787.6,0.00,2.2,"3d",0.60,1.00,1.10,18,2017/11/23,13:17:39
230,46.887753,7.659722,787.6,0.00,245.8,"3d",0.60,1.00,1.10,18,2017/11/23,13:17:39.5
231,46.887755,7.659720,786.9,0.00,125.6,"3d",0.60,1.00,1.10,18,2017/11/23,13:17:40
232,46.887755,7.659720,787.0,0.01,140.1,"3d",0.60,1.00,1.10,18,2017/11/23,13:17:40.5
233,46.887753,7.659722,787.4,0.01,31.3,"3d",0.60,1.00,1.10,18,2017/11/23,13:17:41
234,46.887753,7.659722,787.4,0.00,172.9,"3d",0.60,1.00,1.10,18,2017/11/23,13:17:41.5
235,46.887753,7.659723,787.5,0.00,270.5,"3d",0.60,1.00,1.10,18,2017/11/23,13:17:42
236,46.887753,7.659723,787.5,0.01,339.5,"3d",0.60,1.00,1.10,18,2017/11/23,13:17:42.5
237,46.887755,7.659722,787.6,0.01,2.8,"3d",0.60,1.00,1.10,18,2017/11/23,13:17:43
238,46.887755,7.659722,787.6,0.01,150.8,"3d",0.60,1.00,1.10,18,2017/11/23,13:17:43.5
239,46.887753,7.659723,787.7,0.01,142.0,"3d",0.60,1.00,1.10,18,2017/11/23,13:17:44
240,46.887753,7.659723,787.7,0.01,110.6,"3d",0.60,1.00,1.10,18,2017/11/23,13:17:44.5
241,46.887757,7.659720,787.2,0.01,269.5,"3d",0.60,1.00,1.10,18,2017/11/23,13:17:45
242,46.887757,7.659720,787.2,0.01,13.1,"3d",0.60,1.00,1.10,18,2017/11/23,13:17:45.5
243,46.887757,7.659722,787.6,0.00,173.6,"3d",0.60,1.00,1.10,18,2017/11/23,13:17:46
244,46.887757,7.659722,787.6,0.02,167.5,"3d",0.60,1.00,1.10,18,2017/11/23,13:17:46.5
245,46.887758,7.659720,787.1,0.01,54.1,"3d",0.60,1.00,1.10,18,2017/11/23,13:17:47
246,46.887758,7.659720,787.1,0.00,22.4,"3d",0.60,1.00,1.10,18,2017/11/23,13:17:47.5
247,46.887755,7.659722,787.6,0.00,83.6,"3d",0.60,1.00,1.10,18,2017/11/23,13:17:48
248,46.887755,7.659722,787.5,0.00,343.5,"3d",0.60,1.00,1.10,18,2017/11/23,13:17:48.5
249,46.887758,7.659722,787.1,0.00,217.2,"3d",0.60,1.00,1.10,18,2017/11/23,13:17:49
250,46.887758,7.659722,787.1,0.00,112.3,"3d",0.60,1.00,1.10,18,2017/11/23,13:17:49.5
251,46.887753,7.659722,787.4,0.01,165.8,"3d",0.60,1.00,1.10,18,2017/11/23,13:17:50
252,46.887753,7.659722,787.4,0.01,137.8,"3d",0.60,1.00,1.10,18,2017/11/23,13:17:50.5
253,46.887755,7.659722,787.6,0.01,170.3,"3d",0.60,1.00,1.10,18,2017/11/23,13:17:51
254,46.887755,7.659722,787.6,0.01,141.4,"3d",0.60,1.00,1.10,18,2017/11/23,13:17:51.5
255,46.887758,7.659725,786.8,0.00,221.2,"3d",0.60,1.00,1.10,18,2017/11/23,13:17:52
256,46.887758,7.659725,786.8,0.01,298.4,"3d",0.60,1.00,1.10,18,2017/11/23,13:17:52.5
257,46.887752,7.659720,787.7,0.01,240.5,"3d",0.60,1.00,1.10,18,2017/11/23,13:17:53
258,46.887752,7.659720,787.7,0.01,63.2,"3d",0.60,1.00,1.10,18,2017/11/23,13:17:53.5
259,46.887758,7.659723,787.0,0.00,200.6,"3d",0.60,1.00,1.10,18,2017/11/23,13:17:54
260,46.887758,7.659723,787.1,0.00,11.6,"3d",0.60,1.00,1.10,18,2017/11/23,13:17:54.5
261,46.887757,7.659720,786.9,0.00,213.3,"3d",0.60,1.00,1.10,18,2017/11/23,13:17:55
262,46.887757,7.659720,786.9,0.01,136.3,"3d",0.60,1.00,1.10,18,2017/11/23,13:17:55.5
263,46.887755,7.659722,787.5,0.01,28.3,"3d",0.60,1.00,1.10,18,2017/11/23,13:17:56
264,46.887755,7.659722,787.5,0.00,33.0,"3d",0.60,1.00,1.10,18,2017/11/23,13:17:56.5
265,46.887757,7.659720,787.0,0.02,258.6,"3d",0.60,1.00,1.10,18,2017/11/23,13:17:57
266,46.887757,7.659720,787.0,0.01,125.4,"3d",0.60,1.00,1.10,18,2017/11/23,13:17:57.5
267,46.887755,7.659720,787.4,0.01,180.5,"3d",0.60,1.00,1.10,18,2017/11/23,13:17:58
268,46.887755,7.659720,787.4,0.04,353.7,"3d",0.60,1.00,1.10,18,2017/11/23,13:17:58.5
269,46.887755,7.659722,787.2,0.03,65.5,"3d",0.60,1.00,1.10,18,2017/11/23,13:17:59
