No,Latitude,Longitude,Altitude,Speed,Course,FIX,HDOP,VDOP,PDOP,Satellites,Date,Time
1,46.887752,7.659717,787.8,0.02,344.0,"3d",0.80,1.40,1.60,15,2017/11/23,13:18:09
2,46.887752,7.659717,787.8,0.01,187.0,"3d",0.80,1.40,1.60,15,2017/11/23,13:18:09.5
3,46.887753,7.659720,787.9,0.01,182.4,"3d",0.80,1.40,1.60,15,2017/11/23,13:18:10
4,46.887753,7.659720,787.8,0.01,210.6,"3d",0.80,1.40,1.60,15,2017/11/23,13:18:10.5
5,46.887753,7.659720,788.2,0.03,205.5,"3d",0.80,1.40,1.60,15,2017/11/23,13:18:11
6,46.887753,7.659720,788.2,0.02,190.4,"3d",0.80,1.40,1.60,15,2017/11/23,13:18:11.5
7,46.887752,7.659718,788.5,0.01,48.8,"3d",0.80,1.40,1.60,15,2017/11/23,13:18:12
8,46.887752,7.659718,788.4,0.01,347.8,"3d",0.80,1.40,1.60,15,2017/11/23,13:18:12.5
9,46.887750,7.659722,788.4,0.00,104.4,"3d",0.80,1.40,1.60,15,2017/11/23,13:18:13
10,46.887750,7.659722,788.4,0.01,134.4,"3d",0.80,1.40,1.60,15,2017/11/23,13:18:13.5
11,46.887752,7.659720,788.3,0.00,209.8,"3d",0.80,1.40,1.60,15,2017/11/23,13:18:14
12,46.887752,7.659720,788.3,0.01,197.4,"3d",0.80,1.40,1.60,15,2017/11/23,13:18:14.5
13,46.887752,7.659718,788.0,0.01,143.1,"3d",0.80,1.40,1.60,15,2017/11/23,13:18:15
14,46.887752,7.659718,788.0,0.00,112.8,"3d",0.80,1.40,1.60,15,2017/11/23,13:18:15.5
15,46.887752,7.659720,789.1,0.01,4.9,"3d",0.80,1.40,1.60,15,2017/11/23,13:18:16
16,46.887752,7.659720,789.1,0.01,162.7,"3d",0.80,1.40,1.60,15,2017/11/23,13:18:16.5
17,46.887752,7.659720,789.4,0.00,321.5,"3d",0.80,1.40,1.60,15,2017/11/23,13:18:17
18,46.887752,7.659720,789.4,0.01,159.2,"3d",0.80,1.40,1.60,15,2017/11/23,13:18:17.5
19,46.887752,7.659720,789.1,0.00,349.9,"3d",0.80,1.40,1.60,15,2017/11/23,13:18:18
20,46.887752,7.659720,789.1,0.01,23.2,"3d",0.80,1.40,1.60,15,2017/11/23,13:18:18.5
21,46.887755,7.659723,788.3,0.02,347.0,"3d",0.80,1.40,1.60,15,2017/11/23,13:18:19
22,46.887755,7.659723,788.3,0.01,155.7,"3d",0.80,1.40,1.60,15,2017/11/23,13:18:19.5
23,46.887755,7.659723,788.2,0.01,155.5,"3d",0.80,1.40,1.60,15,2017/11/23,13:18:20
24,46.887755,7.659723,788.2,0.00,75.3,"3d",0.80,1.40,1.60,15,2017/11/23,13:18:20.5
25,46.887755,7.659720,787.8,0.01,202.7,"3d",0.80,1.40,1.60,15,2017/11/23,13:18:21
26,46.887755,7.659720,787.8,0.01,343.9,"3d",0.80,1.40,1.60,15,2017/11/23,13:18:21.5
27,46.887753,7.659720,788.0,0.00,74.6,"3d",0.80,1.40,1.60,15,2017/11/23,13:18:22
28,46.887753,7.659720,788.1,0.00,46.8,"3d",0.80,1.40,1.60,15,2017/11/23,13:18:22.5
29,46.887755,7.659720,787.9,0.00,344.6,"3d",0.80,1.40,1.60,15,2017/11/23,13:18:23
30,46.887755,7.659720,787.9,0.01,359.2,"3d",0.80,1.40,1.60,15,2017/11/23,13:18:23.5
31,46.887755,7.659720,787.9,0.01,129.2,"3d",0.80,1.40,1.60,15,2017/11/23,13:18:24
32,46.887755,7.659720,787.9,0.00,359.9,"3d",0.80,1.40,1.60,15,2017/11/23,13:18:24.5
33,46.887752,7.659718,788.3,0.00,307.5,"3d",0.80,1.40,1.60,15,2017/11/23,13:18:25
34,46.887752,7.659718,788.3,0.01,5.0,"3d",0.80,1.40,1.60,15,2017/11/23,13:18:25.5
35,46.887750,7.659722,788.2,0.01,199.0,"3d",0.80,1.40,1.60,15,2017/11/23,13:18:26
36,46.887750,7.659722,788.3,0.00,66.2,"3d",0.80,1.40,1.60,15,2017/11/23,13:18:26.5
37,46.887755,7.659720,787.9,0.00,295.5,"3d",0.80,1.40,1.60,15,2017/11/23,13:18:27
38,46.887755,7.659720,787.9,0.01,187.4,"3d",0.80,1.40,1.60,15,2017/11/23,13:18:27.5
39,46.887752,7.659718,788.0,0.01,347.4,"3d",0.80,1.40,1.60,15,2017/11/23,13:18:28
40,46.887752,7.659718,788.1,0.01,250.0,"3d",0.80,1.40,1.60,15,2017/11/23,13:18:28.5
41,46.887752,7.659717,788.3,0.00,262.7,"3d",0.80,1.40,1.60,15,2017/11/23,13:18:29
42,46.887752,7.659717,788.3,0.00,158.3,"3d",0.80,1.40,1.60,15,2017/11/23,13:18:29.5
43,46.887755,7.659718,788.0,0.01,35.1,"3d",0.80,1.40,1.60,15,2017/11/23,13:18:30
44,46.887755,7.659718,788.0,0.00,322.8,"3d",0.80,1.40,1.60,15,2017/11/23,13:18:30.5
45,46.887753,7.659718,788.1,0.01,184.7,"3d",0.80,1.40,1.60,15,2017/11/23,13:18:31
46,46.887753,7.659718,788.1,0.00,278.8,"3d",0.80,1.40,1.60,15,2017/11/23,13:18:31.5
47,46.887755,7.659722,788.0,0.01,174.8,"3d",0.80,1.40,1.60,15,2017/11/23,13:18:32
48,46.887755,7.659722,788.0,0.00,26.8,"3d",0.80,1.40,1.60,15,2017/11/23,13:18:32.5
49,46.887755,7.659720,788.2,0.01,191.6,"3d",0.80,1.40,1.60,15,2017/11/23,13:18:33
50,46.887755,7.659720,788.1,0.01,187.7,"3d",0.80,1.40,1.60,15,2017/11/23,13:18:33.5
51,46.887755,7.659720,788.1,0.01,339.0,"3d",0.80,1.40,1.60,15,2017/11/23,13:18:34
52,46.887755,7.659720,788.1,0.01,206.4,"3d",0.80,1.40,1.60,15,2017/11/23,13:18:34.5
53,46.887752,7.659720,788.4,0.01,136.3,"3d",0.80,1.40,1.60,15,2017/11/23,13:18:35
54,46.887752,7.659720,788.4,0.01,130.3,"3d",0.80,1.40,1.60,15,2017/11/23,13:18:35.5
55,46.887752,7.659720,788.4,0.01,185.7,"3d",0.80,1.40,1.60,15,2017/11/23,13:18:36
56,46.887752,7.659720,788.4,0.00,204.1,"3d",0.80,1.40,1.60,15,2017/11/23,13:18:36.5
57,46.887755,7.659718,787.8,0.00,216.5,"3d",0.80,1.40,1.60,15,2017/11/23,13:18:37
58,46.887755,7.659718,787.8,0.01,307.1,"3d",0.80,1.40,1.60,15,2017/11/23,13:18:37.5
59,46.887752,7.659715,787.9,0.02,356.5,"3d",0.80,1.40,1.60,15,2017/11/23,13:18:38
60,46.887752,7.659715,787.9,0.01,2.4,"3d",0.80,1.40,1.60,15,2017/11/23,13:18:38.5
61,46.887753,7.659718,788.1,0.00,250.9,"3d",0.80,1.40,1.60,15,2017/11/23,13:18:39
62,46.887753,7.659718,788.1,0.01,248.8,"3d",0.80,1.40,1.60,15,2017/11/23,13:18:39.5
63,46.887753,7.659718,788.1,0.01,62.1,"3d",0.80,1.40,1.60,15,2017/11/23,13:18:40
64,46.887753,7.659718,788.0,0.01,265.1,"3d",0.80,1.40,1.60,15,2017/11/23,13:18:40.5
65,46.887753,7.659717,787.9,0.01,21.7,"3d",0.80,1.40,1.60,15,2017/11/23,13:18:41
66,46.887753,7.659717,787.8,0.03,151.3,"3d",0.80,1.40,1.60,15,2017/11/23,13:18:41.5
67,46.887755,7.659720,788.1,0.01,165.6,"3d",0.80,1.40,1.60,15,2017/11/23,13:18:42
68,46.887755,7.659720,788.1,0.01,343.0,"3d",0.80,1.40,1.60,15,2017/11/23,13:18:42.5
69,46.887748,7.659718,788.3,0.01,328.3,"3d",0.80,1.40,1.60,15,2017/11/23,13:18:43
70,46.887748,7.659718,788.3,0.04,179.5,"3d",0.80,1.40,1.60,15,2017/11/23,13:18:43.5
71,46.887755,7.659718,787.8,0.03,52.5,"3d",0.80,1.40,1.60,15,2017/11/23,13:18:44
72,46.887755,7.659718,787.8,0.04,348.3,"3d",0.80,1.40,1.60,15,2017/11/23,13:18:44.5
73,46.887748,7.659722,788.7,0.02,182.0,"3d",0.80,1.40,1.60,15,2017/11/23,13:18:45
74,46.887748,7.659722,788.7,0.03,11.7,"3d",0.80,1.40,1.60,15,2017/11/23,13:18:45.5
75,46.887747,7.659723,788.9,0.01,304.8,"3d",0.80,1.40,1.60,15,2017/11/23,13:18:46
76,46.887747,7.659723,788.9,0.00,136.5,"3d",0.80,1.40,1.60,15,2017/11/23,13:18:46.5
77,46.887752,7.659722,788.5,0.01,7.4,"3d",0.80,1.40,1.60,15,2017/11/23,13:18:47
78,46.887752,7.659722,788.5,0.00,3.1,"3d",0.80,1.40,1.60,15,2017/11/23,13:18:47.5
79,46.887755,7.659718,788.0,0.00,269.4,"3d",0.80,1.40,1.60,15,2017/11/23,13:18:48
80,46.887755,7.659718,788.0,0.00,296.7,"3d",0.80,1.40,1.60,15,2017/11/23,13:18:48.5
81,46.887758,7.659722,787.8,0.01,349.0,"3d",0.80,1.40,1.60,15,2017/11/23,13:18:49
82,46.887758,7.659722,787.8,0.00,230.2,"3d",0.80,1.40,1.60,15,2017/11/23,13:18:49.5
83,46.887757,7.659723,788.1,0.00,116.6,"3d",0.80,1.40,1.60,15,2017/11/23,13:18:50
84,46.887757,7.659723,788.2,0.01,339.9,"3d",0.80,1.40,1.60,15,2017/11/23,13:18:50.5
85,46.887753,7.659720,788.7,0.00,132.3,"3d",0.80,1.40,1.60,15,2017/11/23,13:18:51
86,46.887753,7.659720,788.7,0.01,331.9,"3d",0.80,1.40,1.60,15,2017/11/23,13:18:51.5
87,46.887750,7.659722,788.9,0.01,126.3,"3d",0.80,1.40,1.60,15,2017/11/23,13:18:52
88,46.887750,7.659722,788.9,0.01,85.3,"3d",0.80,1.40,1.60,15,2017/11/23,13:18:52.5
89,46.887752,7.659720,788.4,0.02,142.9,"3d",0.80,1.40,1.60,15,2017/11/23,13:18:53
90,46.887752,7.659720,788.4,0.01,141.6,"3d",0.80,1.40,1.60,15,2017/11/23,13:18:53.5
91,46.887752,7.659722,788.4,0.00,176.9,"3d",0.80,1.40,1.60,15,2017/11/23,13:18:54
92,46.887752,7.659722,788.4,0.00,346.4,"3d",0.80,1.40,1.60,15,2017/11/23,13:18:54.5
93,46.887750,7.659723,788.6,0.01,60.7,"3d",0.80,1.40,1.60,15,2017/11/23,13:18:55
94,46.887750,7.659723,788.6,0.01,318.2,"3d",0.80,1.40,1.60,15,2017/11/23,13:18:55.5
95,46.887752,7.659723,788.3,0.02,229.9,"3d",0.80,1.40,1.60,15,2017/11/23,13:18:56
96,46.887752,7.659723,788.3,0.01,41.5,"3d",0.80,1.40,1.60,15,2017/11/23,13:18:56.5
97,46.887752,7.659722,788.3,0.02,164.4,"3d",0.80,1.40,1.60,15,2017/11/23,13:18:57
98,46.887752,7.659722,788.3,0.01,324.2,"3d",0.80,1.40,1.60,15,2017/11/23,13:18:57.5
99,46.887755,7.659720,788.2,0.01,186.4,"3d",0.80,1.40,1.60,15,2017/11/23,13:18:58
100,46.887755,7.659720,788.2,0.01,318.5,"3d",0.80,1.40,1.60,15,2017/11/23,13:18:58.5
101,46.887758,7.659722,787.8,0.00,80.2,"3d",0.80,1.40,1.60,15,2017/11/23,13:18:59
102,46.887758,7.659722,787.8,0.02,185.8,"3d",0.80,1.40,1.60,15,2017/11/23,13:18:59.5
103,46.887757,7.659723,787.8,0.01,230.2,"3d",0.80,1.40,1.60,15,2017/11/23,13:19:00
104,46.887757,7.659723,787.8,0.01,355.9,"3d",0.80,1.40,1.60,15,2017/11/23,13:19:00.5
105,46.887753,7.659722,788.6,0.02,339.1,"3d",0.80,1.40,1.60,15,2017/11/23,13:19:01
106,46.887753,7.659722,788.6,0.00,154.9,"3d",0.80,1.40,1.60,15,2017/11/23,13:19:01.5
107,46.887753,7.659718,788.4,0.01,277.5,"3d",0.80,1.40,1.60,15,2017/11/23,13:19:02
108,46.887753,7.659718,788.4,0.01,10.5,"3d",0.80,1.40,1.60,15,2017/11/23,13:19:02.5
109,46.887753,7.659718,788.4,0.01,346.6,"3d",0.80,1.40,1.60,15,2017/11/23,13:19:03
110,46.887753,7.659718,788.3,0.01,173.2,"3d",0.80,1.40,1.60,15,2017/11/23,13:19:03.5
111,46.887755,7.659720,788.0,0.01,152.6,"3d",0.80,1.40,1.60,15,2017/11/23,13:19:04
112,46.887755,7.659720,788.0,0.00,80.6,"3d",0.80,1.40,1.60,15,2017/11/23,13:19:04.5
113,46.887755,7.659720,788.1,0.01,187.0,"3d",0.80,1.40,1.60,15,2017/11/23,13:19:05
114,46.887755,7.659720,788.1,0.00,345.5,"3d",0.80,1.40,1.60,15,2017/11/23,13:19:05.5
115,46.887758,7.659722,787.8,0.00,70.4,"3d",0.80,1.40,1.60,15,2017/11/23,13:19:06
116,46.887758,7.659722,787.8,0.00,96.2,"3d",0.80,1.40,1.60,15,2017/11/23,13:19:06.5
117,46.887753,7.659717,787.8,0.00,246.8,"3d",0.80,1.40,1.60,15,2017/11/23,13:19:07
118,46.887753,7.659717,787.8,0.01,211.7,"3d",0.80,1.40,1.60,15,2017/11/23,13:19:07.5
119,46.887753,7.659723,787.9,0.01,40.2,"3d",0.80,1.40,1.60,15,2017/11/23,13:19:08
120,46.887753,7.659723,787.9,0.00,287.4,"3d",0.80,1.40,1.60,15,2017/11/23,13:19:08.5
121,46.887753,7.659720,788.0,0.00,198.8,"3d",0.80,1.40,1.60,15,2017/11/23,13:19:09
122,46.887753,7.659720,787.9,0.01,26.4,"3d",0.80,1.40,1.60,15,2017/11/23,13:19:09.5
123,46.887743,7.659720,788.7,0.00,18.1,"3d",0.80,1.40,1.60,15,2017/11/23,13:19:10
124,46.887743,7.659720,788.7,0.00,62.0,"3d",0.80,1.40,1.60,15,2017/11/23,13:19:10.5
125,46.887748,7.659720,788.4,0.00,300.8,"3d",0.80,1.40,1.60,15,2017/11/23,13:19:11
126,46.887748,7.659720,788.4,0.01,321.7,"3d",0.80,1.40,1.60,15,2017/11/23,13:19:11.5
127,46.887755,7.659720,787.9,0.00,282.3,"3d",0.80,1.40,1.60,15,2017/11/23,13:19:12
128,46.887755,7.659720,787.9,0.01,151.5,"3d",0.80,1.40,1.60,15,2017/11/23,13:19:12.5
129,46.887747,7.659720,788.6,0.01,47.9,"3d",0.80,1.40,1.60,15,2017/11/23,13:19:13
130,46.887747,7.659720,788.6,0.01,178.0,"3d",0.80,1.40,1.60,15,2017/11/23,13:19:13.5
131,46.887745,7.659722,788.6,0.01,174.3,"3d",0.80,1.40,1.60,15,2017/11/23,13:19:14
132,46.887745,7.659722,788.6,0.01,171.1,"3d",0.80,1.40,1.60,15,2017/11/23,13:19:14.5
133,46.887745,7.659723,788.8,0.01,353.4,"3d",0.80,1.40,1.60,15,2017/11/23,13:19:15
134,46.887745,7.659723,788.8,0.00,326.5,"3d",0.80,1.40,1.60,15,2017/11/23,13:19:15.5
135,46.887745,7.659722,788.4,0.01,195.7,"3d",0.80,1.40,1.60,15,2017/11/23,13:19:16
136,46.887745,7.659722,788.4,0.00,12.6,"3d",0.80,1.40,1.60,15,2017/11/23,13:19:16.5
137,46.887750,7.659723,788.3,0.00,349.6,"3d",0.80,1.40,1.60,15,2017/11/23,13:19:17
138,46.887750,7.659723,788.3,0.00,37.3,"3d",0.80,1.40,1.60,15,2017/11/23,13:19:17.5
139,46.887748,7.659720,788.1,0.01,19.0,"3d",0.80,1.40,1.60,15,2017/11/23,13:19:18
140,46.887748,7.659720,788.0,0.01,341.9,"3d",0.80,1.40,1.60,15,2017/11/23,13:19:18.5
141,46.887750,7.659720,788.6,0.01,3.7,"3d",0.80,1.40,1.60,15,2017/11/23,13:19:19
142,46.887750,7.659720,788.6,0.00,159.1,"3d",0.80,1.40,1.60,15,2017/11/23,13:19:19.5
143,46.887750,7.659722,788.3,0.00,52.7,"3d",0.80,1.40,1.60,15,2017/11/23,13:19:20
144,46.887750,7.659722,788.3,0.00,144.9,"3d",0.80,1.40,1.60,15,2017/11/23,13:19:20.5
145,46.887753,7.659720,787.8,0.00,180.8,"3d",0.80,1.40,1.60,15,2017/11/23,13:19:21
146,46.887753,7.659720,787.8,0.00,201.7,"3d",0.80,1.40,1.60,15,2017/11/23,13:19:21.5
147,46.887755,7.659718,787.8,0.00,346.3,"3d",0.80,1.40,1.60,15,2017/11/23,13:19:22
148,46.887755,7.659718,787.8,0.01,176.9,"3d",0.80,1.40,1.60,15,2017/11/23,13:19:22.5
149,46.887755,7.659722,788.0,0.01,346.8,"3d",0.80,1.40,1.60,15,2017/11/23,13:19:23
150,46.887755,7.659722,788.0,0.02,15.5,"3d",0.80,1.40,1.60,15,2017/11/23,13:19:23.5
151,46.887753,7.659718,788.0,0.00,285.6,"3d",0.80,1.40,1.60,15,2017/11/23,13:19:24
152,46.887753,7.659718,788.0,0.01,12.9,"3d",0.80,1.40,1.60,15,2017/11/23,13:19:24.5
153,46.887753,7.659722,788.6,0.01,3.2,"3d",0.80,1.40,1.60,15,2017/11/23,13:19:25
154,46.887753,7.659720,788.6,0.01,188.7,"3d",0.80,1.40,1.60,15,2017/11/23,13:19:25.5
155,46.887752,7.659720,788.8,0.01,22.2,"3d",0.80,1.40,1.60,15,2017/11/23,13:19:26
156,46.887752,7.659720,788.8,0.00,59.2,"3d",0.80,1.40,1.60,15,2017/11/23,13:19:26.5
157,46.887753,7.659718,789.1,0.02,359.6,"3d",0.80,1.40,1.60,15,2017/11/23,13:19:27
158,46.887753,7.659718,789.1,0.00,315.1,"3d",0.80,1.40,1.60,15,2017/11/23,13:19:27.5
159,46.887753,7.659718,788.4,0.01,50.1,"3d",0.80,1.40,1.60,15,2017/11/23,13:19:28
160,46.887753,7.659718,788.5,0.02,1.8,"3d",0.80,1.40,1.60,15,2017/11/23,13:19:28.5
161,46.887755,7.659718,787.9,0.01,7.9,"3d",0.80,1.40,1.60,15,2017/11/23,13:19:29
162,46.887755,7.659718,787.9,0.00,272.6,"3d",0.80,1.40,1.60,15,2017/11/23,13:19:29.5
163,46.887755,7.659718,788.0,0.01,322.9,"3d",0.80,1.40,1.60,15,2017/11/23,13:19:30
164,46.887755,7.659718,788.0,0.00,115.8,"3d",0.80,1.40,1.60,15,2017/11/23,13:19:30.5
165,46.887752,7.659718,788.2,0.01,2.6,"3d",0.80,1.40,1.60,15,2017/11/23,13:19:31
166,46.887752,7.659718,788.2,0.00,84.7,"3d",0.80,1.40,1.60,15,2017/11/23,13:19:31.5
167,46.887755,7.659722,787.8,0.02,6.4,"3d",0.80,1.40,1.60,15,2017/11/23,13:19:32
168,46.887755,7.659722,787.8,0.01,51.6,"3d",0.80,1.40,1.60,15,2017/11/23,13:19:32.5
169,46.887753,7.659722,788.1,0.01,195.1,"3d",0.80,1.40,1.60,15,2017/11/23,13:19:33
170,46.887753,7.659722,788.1,0.00,116.4,"3d",0.80,1.40,1.60,15,2017/11/23,13:19:33.5
171,46.887757,7.659722,787.9,0.00,118.7,"3d",0.80,1.40,1.60,15,2017/11/23,13:19:34
172,46.887757,7.659722,787.8,0.01,91.2,"3d",0.80,1.40,1.60,15,2017/11/23,13:19:34.5
173,46.887757,7.659722,787.8,0.01,181.0,"3d",0.80,1.40,1.60,15,2017/11/23,13:19:35
174,46.887757,7.659722,787.9,0.01,134.4,"3d",0.80,1.40,1.60,15,2017/11/23,13:19:35.5
175,46.887755,7.659722,789.3,0.01,24.4,"3d",0.80,1.40,1.60,15,2017/11/23,13:19:36
176,46.887755,7.659722,789.3,0.00,331.6,"3d",0.80,1.40,1.60,15,2017/11/23,13:19:36.5
177,46.887755,7.659722,789.0,0.01,28.0,"3d",0.80,1.40,1.60,15,2017/11/23,13:19:37
178,46.887755,7.659722,789.0,0.00,65.1,"3d",0.80,1.40,1.60,15,2017/11/23,13:19:37.5
179,46.887755,7.659720,787.9,0.01,22.4,"3d",0.80,1.40,1.60,15,2017/11/23,13:19:38
180,46.887755,7.659720,788.0,0.01,67.3,"3d",0.80,1.40,1.60,15,2017/11/23,13:19:38.5
181,46.887753,7.659720,788.2,0.01,232.4,"3d",0.80,1.40,1.60,15,2017/11/23,13:19:39
182,46.887753,7.659720,788.2,0.01,289.6,"3d",0.80,1.40,1.60,15,2017/11/23,13:19:39.5
183,46.887755,7.659720,788.1,0.01,328.6,"3d",0.80,1.40,1.60,15,2017/11/23,13:19:40
184,46.887755,7.659720,788.1,0.01,0.5,"3d",0.80,1.40,1.60,15,2017/11/23,13:19:40.5
185,46.887757,7.659720,787.9,0.00,50.1,"3d",0.80,1.40,1.60,15,2017/11/23,13:19:41
186,46.887757,7.659720,787.9,0.01,179.6,"3d",0.80,1.40,1.60,15,2017/11/23,13:19:41.5
187,46.887755,7.659720,788.2,0.01,177.9,"3d",0.80,1.40,1.60,15,2017/11/23,13:19:42
188,46.887755,7.659720,788.2,0.01,131.7,"3d",0.80,1.40,1.60,15,2017/11/23,13:19:42.5
189,46.887755,7.659722,787.7,0.01,190.7,"3d",0.80,1.40,1.60,15,2017/11/23,13:19:43
190,46.887755,7.659722,787.6,0.01,299.3,"3d",0.80,1.40,1.60,15,2017/11/23,13:19:43.5
191,46.887753,7.659717,788.5,0.01,205.9,"3d",0.80,1.40,1.60,15,2017/11/23,13:19:44
192,46.887753,7.659717,788.5,0.02,200.4,"3d",0.80,1.40,1.60,15,2017/11/23,13:19:44.5
193,46.887753,7.659718,787.9,0.01,184.9,"3d",0.80,1.40,1.60,15,2017/11/23,13:19:45
194,46.887753,7.659718,787.9,0.01,168.7,"3d",0.80,1.40,1.60,15,2017/11/23,13:19:45.5
195,46.887753,7.659720,788.1,0.00,315.1,"3d",0.80,1.40,1.60,15,2017/11/23,13:19:46
196,46.887753,7.659720,788.1,0.02,51.5,"3d",0.80,1.40,1.60,15,2017/11/23,13:19:46.5
197,46.887752,7.659722,788.2,0.01,318.0,"3d",0.80,1.40,1.60,15,2017/11/23,13:19:47
198,46.887752,7.659722,788.2,0.01,182.8,"3d",0.80,1.40,1.60,15,2017/11/23,13:19:47.5
199,46.887750,7.659720,788.2,0.01,339.1,"3d",0.80,1.40,1.60,15,2017/11/23,13:19:48
200,46.887750,7.659720,788.2,0.01,28.1,"3d",0.80,1.40,1.60,15,2017/11/23,13:19:48.5
201,46.887753,7.659717,787.7,0.00,282.0,"3d",0.80,1.40,1.60,15,2017/11/23,13:19:49
202,46.887753,7.659717,787.7,0.00,2.9,"3d",0.80,1.40,1.60,15,2017/11/23,13:19:49.5
203,46.887753,7.659717,787.8,0.01,168.3,"3d",0.80,1.40,1.60,15,2017/11/23,13:19:50
204,46.887753,7.659717,787.8,0.01,169.5,"3d",0.80,1.40,1.60,15,2017/11/23,13:19:50.5
